<?xml version="1.0" encoding="UTF-8" standalone="no"?>
<svg
   xmlns:dc="http://purl.org/dc/elements/1.1/"
   xmlns:cc="http://creativecommons.org/ns#"
   xmlns:rdf="http://www.w3.org/1999/02/22-rdf-syntax-ns#"
   xmlns:svg="http://www.w3.org/2000/svg"
   xmlns="http://www.w3.org/2000/svg"
   xmlns:sodipodi="http://sodipodi.sourceforge.net/DTD/sodipodi-0.dtd"
   xmlns:inkscape="http://www.inkscape.org/namespaces/inkscape"
   width="210mm"
   height="297mm"
   viewBox="0 0 210 297"
   version="1.1"
   id="svg8"
   sodipodi:docname="agent.svg"
   inkscape:version="1.0.1 (3bc2e813f5, 2020-09-07, custom)">
  <defs
     id="defs2">
    <marker
       style="overflow:visible;"
       id="marker1361"
       refX="0.0"
       refY="0.0"
       orient="auto"
       inkscape:stockid="Arrow1Send"
       inkscape:isstock="true">
      <path
         transform="scale(0.2) rotate(180) translate(6,0)"
         style="fill-rule:evenodd;stroke:#000000;stroke-width:1pt;stroke-opacity:1;fill:#000000;fill-opacity:1"
         d="M 0.0,0.0 L 5.0,-5.0 L -12.5,0.0 L 5.0,5.0 L 0.0,0.0 z "
         id="path1359" />
    </marker>
    <marker
       style="overflow:visible;"
       id="Arrow1Send"
       refX="0.0"
       refY="0.0"
       orient="auto"
       inkscape:stockid="Arrow1Send"
       inkscape:isstock="true"
       inkscape:collect="always">
      <path
         transform="scale(0.2) rotate(180) translate(6,0)"
         style="fill-rule:evenodd;stroke:#000000;stroke-width:1pt;stroke-opacity:1;fill:#000000;fill-opacity:1"
         d="M 0.0,0.0 L 5.0,-5.0 L -12.5,0.0 L 5.0,5.0 L 0.0,0.0 z "
         id="path930" />
    </marker>
    <marker
       style="overflow:visible;"
       id="marker1247"
       refX="0.0"
       refY="0.0"
       orient="auto"
       inkscape:stockid="Arrow1Mend"
       inkscape:isstock="true">
      <path
         transform="scale(0.4) rotate(180) translate(10,0)"
         style="fill-rule:evenodd;stroke:#000000;stroke-width:1pt;stroke-opacity:1;fill:#000000;fill-opacity:1"
         d="M 0.0,0.0 L 5.0,-5.0 L -12.5,0.0 L 5.0,5.0 L 0.0,0.0 z "
         id="path1245" />
    </marker>
    <marker
       style="overflow:visible;"
       id="marker1219"
       refX="0.0"
       refY="0.0"
       orient="auto"
       inkscape:stockid="Arrow1Mend"
       inkscape:isstock="true">
      <path
         transform="scale(0.4) rotate(180) translate(10,0)"
         style="fill-rule:evenodd;stroke:#000000;stroke-width:1pt;stroke-opacity:1;fill:#000000;fill-opacity:1"
         d="M 0.0,0.0 L 5.0,-5.0 L -12.5,0.0 L 5.0,5.0 L 0.0,0.0 z "
         id="path1217" />
    </marker>
    <marker
       style="overflow:visible;"
       id="Arrow1Lend"
       refX="0.0"
       refY="0.0"
       orient="auto"
       inkscape:stockid="Arrow1Lend"
       inkscape:isstock="true">
      <path
         transform="scale(0.8) rotate(180) translate(12.5,0)"
         style="fill-rule:evenodd;stroke:#000000;stroke-width:1pt;stroke-opacity:1;fill:#000000;fill-opacity:1"
         d="M 0.0,0.0 L 5.0,-5.0 L -12.5,0.0 L 5.0,5.0 L 0.0,0.0 z "
         id="path918" />
    </marker>
  </defs>
  <sodipodi:namedview
     id="base"
     pagecolor="#ffffff"
     bordercolor="#666666"
     borderopacity="1.0"
     inkscape:pageopacity="0.0"
     inkscape:pageshadow="2"
     inkscape:zoom="0.98994949"
     inkscape:cx="507.49382"
     inkscape:cy="220.75228"
     inkscape:document-units="mm"
     inkscape:current-layer="layer1"
     inkscape:document-rotation="0"
     showgrid="true"
     inkscape:window-width="1916"
     inkscape:window-height="1041"
     inkscape:window-x="0"
     inkscape:window-y="35"
     inkscape:window-maximized="0">
    <inkscape:grid
       type="xygrid"
       id="grid833" />
  </sodipodi:namedview>
  <metadata
     id="metadata5">
    <rdf:RDF>
      <cc:Work
         rdf:about="">
        <dc:format>image/svg+xml</dc:format>
        <dc:type
           rdf:resource="http://purl.org/dc/dcmitype/StillImage" />
      </cc:Work>
    </rdf:RDF>
  </metadata>
  <g
     inkscape:label="Layer 1"
     inkscape:groupmode="layer"
     id="layer1">
    <circle
       style="fill:#1382ae;stroke:#000000;stroke-width:0.264999;fill-opacity:1"
       id="circle887"
       cx="174.702"
       cy="39.951241"
       r="23.8125" />
    <path
       id="path873"
       style="fill:#16811b;stroke:#000000;stroke-width:1.00157;fill-opacity:1"
       d="M 643.36719 69.845703 C 642.18783 69.852749 641.06167 69.90427 640 70 C 623.01337 71.531688 608.57201 76.827705 600 100 C 591.42799 123.17229 653.81983 169.39616 660 200 C 663.06466 215.17599 655.31037 228.6704 649.34961 240.32812 A 90 90 0 0 0 660.29102 240.99609 A 90 90 0 0 0 723.5625 215.00195 C 709.75271 202.61608 678.01423 200.49266 670 190 C 659.50573 176.26034 657.70518 177.13599 660 160 C 662.29482 142.86401 709.71592 121.73046 700 100 C 690.89133 79.627692 661.05752 69.740008 643.36719 69.845703 z "
       transform="scale(0.26458333)" />
    <text
       xml:space="preserve"
       style="font-style:normal;font-weight:normal;font-size:4.23333px;line-height:1.25;font-family:sans-serif;fill:#000000;fill-opacity:1;stroke:none;stroke-width:0.264583"
       x="110.00629"
       y="10.583333"
       id="text893"><tspan
         sodipodi:role="line"
         id="tspan891"
         x="110.00629"
         y="10.583333"
         style="font-size:4.23333px;stroke-width:0.264583">action</tspan></text>
    <text
       xml:space="preserve"
       style="font-style:normal;font-weight:normal;font-size:4.23333px;line-height:1.25;font-family:sans-serif;fill:#000000;fill-opacity:1;stroke:none;stroke-width:0.264583"
       x="102.56803"
       y="72.70504"
       id="text897"><tspan
         sodipodi:role="line"
         id="tspan895"
         x="102.56803"
         y="72.70504"
         style="font-size:4.23333px;stroke-width:0.264583">new state, reward</tspan></text>
    <text
       xml:space="preserve"
       style="font-style:normal;font-weight:normal;font-size:4.23333px;line-height:1.25;font-family:sans-serif;fill:#000000;fill-opacity:1;stroke:none;stroke-width:0.264583"
       x="163.06247"
       y="10.583333"
       id="text901"><tspan
         sodipodi:role="line"
         id="tspan899"
         x="163.06247"
         y="10.583333"
         style="font-size:4.23333px;stroke-width:0.264583">environment</tspan></text>
    <text
       xml:space="preserve"
       style="font-style:normal;font-weight:normal;font-size:4.23333px;line-height:1.25;font-family:sans-serif;fill:#000000;fill-opacity:1;stroke:none;stroke-width:0.264583"
       x="57.22929"
       y="10.3251"
       id="text905"><tspan
         sodipodi:role="line"
         id="tspan903"
         x="57.22929"
         y="10.3251"
         style="font-size:4.23333px;stroke-width:0.264583">agent</tspan></text>
    <path
       style="fill:none;stroke:#000000;stroke-width:1;stroke-linecap:butt;stroke-linejoin:miter;stroke-miterlimit:4;stroke-dasharray:none;stroke-opacity:1;marker-end:url(#marker1361)"
       d="m 71.4375,29.104167 c 0,0 15.874993,-13.229166 42.33333,-15.875 26.45834,-2.645834 41.01042,9.260416 41.01042,9.260416"
       id="path911"
       sodipodi:nodetypes="czc" />
    <path
       style="fill:none;stroke:#000000;stroke-width:1;stroke-linecap:butt;stroke-linejoin:miter;stroke-opacity:1;stroke-miterlimit:4;stroke-dasharray:none;marker-end:url(#Arrow1Send)"
       d="m 158.75,58.208333 c 0,0 -18.52083,7.9375 -44.97917,7.937499 C 87.312493,66.145831 71.4375,50.270833 71.4375,50.270833"
       id="path913"
       sodipodi:nodetypes="czc" />
    <path
       id="rect1489"
       style="fill:#6a6a6a;fill-opacity:1;stroke:#000000;stroke-width:0.484849;stroke-miterlimit:4;stroke-dasharray:none"
       d="m 62.531365,25.977273 c -1.237307,0.0036 -2.238441,1.007638 -2.238435,2.24495 4.2e-5,0.86708 0.499415,1.656616 1.282828,2.028221 V 31.75 h -2.886364 c -1.421373,0 -2.565656,1.144283 -2.565656,2.565657 v 10.262626 c 0,1.421374 1.144283,2.565656 2.565656,2.565656 h 7.69697 c 1.421373,0 2.565656,-1.144282 2.565656,-2.565656 V 34.315657 C 68.95202,32.894283 67.807737,31.75 66.386364,31.75 H 63.5 v -1.499556 c 0.783413,-0.371605 1.282786,-1.161141 1.282828,-2.028221 0,-1.239852 -1.005098,-2.24495 -2.244949,-2.24495 -0.0022,-3e-6 -0.0043,-3e-6 -0.0065,0 z m -2.88461,9.532261 c 0.0016,-4e-6 0.0032,-4e-6 0.0048,0 0.531366,0 0.962121,0.430756 0.962121,0.962121 0,0.531364 -0.430755,0.962121 -0.962121,0.962121 -0.531365,0 -0.962121,-0.430757 -0.962121,-0.962121 -6e-6,-0.529512 0.427849,-0.962121 0.957361,-0.962121 z m 5.772727,0 c 0.0016,0 0.0032,-4e-6 0.0048,0 0.531366,0 0.962121,0.430756 0.962121,0.962121 0,0.531364 -0.430755,0.962121 -0.962121,0.962121 -0.531365,0 -0.962121,-0.430757 -0.962121,-0.962121 -6e-6,-0.529512 0.427849,-0.962121 0.957361,-0.962121 z m -5.767967,7.144506 h 5.772728 c 0.533015,0 0.962121,0.429107 0.962121,0.962122 0,0.533015 -0.429106,0.962121 -0.962121,0.962121 h -5.772728 c -0.533015,0 -0.962121,-0.429106 -0.962121,-0.962121 0,-0.533015 0.429106,-0.962122 0.962121,-0.962122 z"
       sodipodi:nodetypes="scccsssssssscccscscsscsscssssssssssssss" />
  </g>
</svg>
