<?xml version="1.0" encoding="UTF-8" standalone="no"?>
<svg
   xmlns:dc="http://purl.org/dc/elements/1.1/"
   xmlns:cc="http://creativecommons.org/ns#"
   xmlns:rdf="http://www.w3.org/1999/02/22-rdf-syntax-ns#"
   xmlns:svg="http://www.w3.org/2000/svg"
   xmlns="http://www.w3.org/2000/svg"
   xmlns:sodipodi="http://sodipodi.sourceforge.net/DTD/sodipodi-0.dtd"
   xmlns:inkscape="http://www.inkscape.org/namespaces/inkscape"
   width="210mm"
   height="297mm"
   viewBox="0 0 210 297"
   version="1.1"
   id="svg2109"
   inkscape:version="1.0.1 (3bc2e813f5, 2020-09-07)"
   sodipodi:docname="linear_predictor.svg">
  <defs
     id="defs2103">
    <marker
       style="overflow:visible"
       id="marker4894"
       refX="0"
       refY="0"
       orient="auto"
       inkscape:stockid="TriangleOutS"
       inkscape:isstock="true">
      <path
         transform="scale(0.2)"
         style="fill:#020202;fill-opacity:1;fill-rule:evenodd;stroke:#020202;stroke-width:1pt;stroke-opacity:1"
         d="M 5.77,0 -2.88,5 V -5 Z"
         id="path4892" />
    </marker>
    <marker
       style="overflow:visible"
       id="marker4830"
       refX="0"
       refY="0"
       orient="auto"
       inkscape:stockid="TriangleOutS"
       inkscape:isstock="true"
       inkscape:collect="always">
      <path
         transform="scale(0.2)"
         style="fill:#020202;fill-opacity:1;fill-rule:evenodd;stroke:#020202;stroke-width:1pt;stroke-opacity:1"
         d="M 5.77,0 -2.88,5 V -5 Z"
         id="path4828" />
    </marker>
    <marker
       style="overflow:visible"
       id="marker4768"
       refX="0"
       refY="0"
       orient="auto"
       inkscape:stockid="TriangleOutS"
       inkscape:isstock="true"
       inkscape:collect="always">
      <path
         transform="scale(0.2)"
         style="fill:#020202;fill-opacity:1;fill-rule:evenodd;stroke:#020202;stroke-width:1pt;stroke-opacity:1"
         d="M 5.77,0 -2.88,5 V -5 Z"
         id="path4766" />
    </marker>
    <marker
       style="overflow:visible"
       id="marker4679"
       refX="0"
       refY="0"
       orient="auto"
       inkscape:stockid="TriangleOutS"
       inkscape:isstock="true">
      <path
         transform="scale(0.2)"
         style="fill:#020202;fill-opacity:1;fill-rule:evenodd;stroke:#020202;stroke-width:1pt;stroke-opacity:1"
         d="M 5.77,0 -2.88,5 V -5 Z"
         id="path4677" />
    </marker>
  </defs>
  <sodipodi:namedview
     id="base"
     pagecolor="#ffffff"
     bordercolor="#666666"
     borderopacity="1.0"
     inkscape:pageopacity="0.0"
     inkscape:pageshadow="2"
     inkscape:zoom="2.0902076"
     inkscape:cx="379.57169"
     inkscape:cy="254.80687"
     inkscape:document-units="mm"
     inkscape:current-layer="g4756"
     inkscape:document-rotation="0"
     showgrid="true"
     inkscape:window-width="1920"
     inkscape:window-height="1080"
     inkscape:window-x="0"
     inkscape:window-y="0"
     inkscape:window-maximized="0">
    <inkscape:grid
       type="xygrid"
       id="grid2838" />
  </sodipodi:namedview>
  <metadata
     id="metadata2106">
    <rdf:RDF>
      <cc:Work
         rdf:about="">
        <dc:format>image/svg+xml</dc:format>
        <dc:type
           rdf:resource="http://purl.org/dc/dcmitype/StillImage" />
        <dc:title />
      </cc:Work>
    </rdf:RDF>
  </metadata>
  <g
     inkscape:label="Layer 1"
     inkscape:groupmode="layer"
     id="layer1">
    <g
       id="g1270"
       transform="matrix(1.0035653,0,0,0.99169215,0.91256727,57.270072)">
      <g
         id="g1275">
        <path
           style="fill:none;stroke:#020202;stroke-width:0.701676;stroke-linecap:butt;stroke-linejoin:miter;stroke-miterlimit:4;stroke-dasharray:none;stroke-opacity:1;marker-end:url(#marker4894)"
           d="M 103.2298,-4.3898758 V 2.5469208"
           id="path4890"
           sodipodi:nodetypes="cc" />
        <path
           style="fill:none;stroke:#020202;stroke-width:0.701676;stroke-linecap:butt;stroke-linejoin:miter;stroke-miterlimit:4;stroke-dasharray:none;stroke-opacity:1;marker-end:url(#marker4830)"
           d="m 103.2298,-23.332666 0,6.936796"
           id="path4826"
           sodipodi:nodetypes="cc" />
        <path
           style="fill:none;stroke:#020202;stroke-width:0.701676;stroke-linecap:butt;stroke-linejoin:miter;stroke-miterlimit:4;stroke-dasharray:none;stroke-opacity:1;marker-end:url(#marker4768)"
           d="m 103.2298,-43.075856 0,7.737196"
           id="path4764"
           sodipodi:nodetypes="cc" />
        <g
           id="g4756">
          <g
             id="g3838"
             transform="translate(38.228271,-109.38794)">
            <rect
               style="fill:#c1ffb0;fill-opacity:1;stroke:#156800;stroke-width:0.701676;stroke-opacity:1"
               id="rect1264"
               width="31.637203"
               height="9.3379955"
               x="49.182919"
               y="56.974087" />
            <text
               xml:space="preserve"
               style="font-style:normal;font-variant:normal;font-weight:normal;font-stretch:normal;font-size:4.24347px;line-height:1.25;font-family:sans-serif;-inkscape-font-specification:'sans-serif, Normal';font-variant-ligatures:normal;font-variant-caps:normal;font-variant-numeric:normal;font-variant-east-asian:normal;fill:#000000;fill-opacity:1;stroke:none;stroke-width:0.265217"
               x="57.472343"
               y="62.859322"
               id="text1268"
               transform="scale(0.99406691,1.0059685)"><tspan
                 sodipodi:role="line"
                 id="tspan1266"
                 x="57.472343"
                 y="62.859322"
                 style="font-style:normal;font-variant:normal;font-weight:normal;font-stretch:normal;font-size:4.24347px;font-family:sans-serif;-inkscape-font-specification:'sans-serif, Normal';font-variant-ligatures:normal;font-variant-caps:normal;font-variant-numeric:normal;font-variant-east-asian:normal;stroke-width:0.265217">Reward</tspan></text>
          </g>
          <rect
             style="fill:#ecd5f7;stroke:#4f4f4f;stroke-width:0.701676;stroke-opacity:1"
             id="rect3840"
             width="47.455807"
             height="10.671995"
             x="79.501884"
             y="-34.182529" />
          <rect
             style="fill:#ecd5f7;stroke:#4f4f4f;stroke-width:0.701676;stroke-opacity:1"
             id="rect3842"
             width="100.18448"
             height="10.671994"
             x="53.137554"
             y="-15.284204" />
          <rect
             style="fill:#dfdfdf;fill-opacity:1;stroke:#4f4f4f;stroke-width:0.701676;stroke-opacity:1"
             id="rect3846"
             width="29.000771"
             height="10.671995"
             x="1.727098"
             y="3.6141212" />
          <rect
             style="fill:#dfdfdf;fill-opacity:1;stroke:#4f4f4f;stroke-width:0.701676;stroke-opacity:1"
             id="rect3848"
             width="29.000771"
             height="10.671995"
             x="30.727865"
             y="3.6141202" />
          <rect
             style="fill:#dfdfdf;fill-opacity:1;stroke:#4f4f4f;stroke-width:0.701676;stroke-opacity:1"
             id="rect3850"
             width="29.000771"
             height="10.671995"
             x="59.728634"
             y="3.6141202" />
          <rect
             style="fill:#dfdfdf;fill-opacity:1;stroke:#4f4f4f;stroke-width:0.701676;stroke-opacity:1"
             id="rect3852"
             width="29.000771"
             height="10.671995"
             x="88.729401"
             y="3.6141193" />
          <rect
             style="fill:#dfdfdf;fill-opacity:1;stroke:#4f4f4f;stroke-width:0.701676;stroke-opacity:1"
             id="rect3854"
             width="29.000771"
             height="10.671995"
             x="117.73019"
             y="3.6141212" />
          <rect
             style="fill:#dfdfdf;fill-opacity:1;stroke:#4f4f4f;stroke-width:0.701676;stroke-opacity:1"
             id="rect3856"
             width="29.000771"
             height="10.671995"
             x="147.19885"
             y="3.6141202" />
          <rect
             style="fill:#dfdfdf;fill-opacity:1;stroke:#4f4f4f;stroke-width:0.701676;stroke-opacity:1"
             id="rect3858"
             width="29.000771"
             height="10.671995"
             x="175.73172"
             y="3.6141202" />
          <text
             xml:space="preserve"
             style="font-style:normal;font-variant:normal;font-weight:normal;font-stretch:normal;font-size:4.24347px;line-height:1.25;font-family:sans-serif;-inkscape-font-specification:'sans-serif, Normal';font-variant-ligatures:normal;font-variant-caps:normal;font-variant-numeric:normal;font-variant-east-asian:normal;fill:#000000;fill-opacity:1;stroke:none;stroke-width:0.265217"
             x="91.046089"
             y="-27.5047"
             id="text3871"
             transform="scale(0.99406692,1.0059685)"><tspan
               sodipodi:role="line"
               id="tspan3869"
               x="91.046089"
               y="-27.5047"
               style="font-style:normal;font-variant:normal;font-weight:normal;font-stretch:normal;font-size:4.24347px;font-family:sans-serif;-inkscape-font-specification:'sans-serif, Normal';font-variant-ligatures:normal;font-variant-caps:normal;font-variant-numeric:normal;font-variant-east-asian:normal;stroke-width:0.265217">Linear layer</tspan></text>
          <text
             xml:space="preserve"
             style="font-style:normal;font-variant:normal;font-weight:normal;font-stretch:normal;font-size:4.24347px;line-height:1.25;font-family:sans-serif;-inkscape-font-specification:'sans-serif, Normal';font-variant-ligatures:normal;font-variant-caps:normal;font-variant-numeric:normal;font-variant-east-asian:normal;fill:#000000;fill-opacity:1;stroke:none;stroke-width:0.265217"
             x="91.046097"
             y="-8.7184992"
             id="text3875"
             transform="scale(0.99406692,1.0059685)"><tspan
               sodipodi:role="line"
               id="tspan3873"
               x="91.046097"
               y="-8.7184992"
               style="font-style:normal;font-variant:normal;font-weight:normal;font-stretch:normal;font-size:4.24347px;font-family:sans-serif;-inkscape-font-specification:'sans-serif, Normal';font-variant-ligatures:normal;font-variant-caps:normal;font-variant-numeric:normal;font-variant-east-asian:normal;stroke-width:0.265217">Linear layer</tspan></text>
          <text
             xml:space="preserve"
             style="font-style:normal;font-variant:normal;font-weight:normal;font-stretch:normal;font-size:4.24347px;line-height:1.25;font-family:sans-serif;-inkscape-font-specification:'sans-serif, Normal';font-variant-ligatures:normal;font-variant-caps:normal;font-variant-numeric:normal;font-variant-east-asian:normal;fill:#000000;fill-opacity:1;stroke:none;stroke-width:0.265217"
             x="8.371974"
             y="10.002433"
             id="text3879"
             transform="scale(0.99406692,1.0059685)"><tspan
               sodipodi:role="line"
               id="tspan3877"
               x="8.371974"
               y="10.002433"
               style="font-style:normal;font-variant:normal;font-weight:normal;font-stretch:normal;font-size:4.24347px;font-family:sans-serif;-inkscape-font-specification:'sans-serif, Normal';font-variant-ligatures:normal;font-variant-caps:normal;font-variant-numeric:normal;font-variant-east-asian:normal;stroke-width:0.265217">Layer 1</tspan></text>
          <text
             xml:space="preserve"
             style="font-style:normal;font-variant:normal;font-weight:normal;font-stretch:normal;font-size:4.24347px;line-height:1.25;font-family:sans-serif;-inkscape-font-specification:'sans-serif, Normal';font-variant-ligatures:normal;font-variant-caps:normal;font-variant-numeric:normal;font-variant-east-asian:normal;fill:#000000;fill-opacity:1;stroke:none;stroke-width:0.265217"
             x="37.562408"
             y="10.030404"
             id="text3890"
             transform="scale(0.99406692,1.0059685)"><tspan
               sodipodi:role="line"
               id="tspan3888"
               x="37.562408"
               y="10.030404"
               style="font-style:normal;font-variant:normal;font-weight:normal;font-stretch:normal;font-size:4.24347px;font-family:sans-serif;-inkscape-font-specification:'sans-serif, Normal';font-variant-ligatures:normal;font-variant-caps:normal;font-variant-numeric:normal;font-variant-east-asian:normal;stroke-width:0.265217">Layer 2</tspan></text>
          <text
             xml:space="preserve"
             style="font-style:normal;font-variant:normal;font-weight:normal;font-stretch:normal;font-size:4.24347px;line-height:1.25;font-family:sans-serif;-inkscape-font-specification:'sans-serif, Normal';font-variant-ligatures:normal;font-variant-caps:normal;font-variant-numeric:normal;font-variant-east-asian:normal;fill:#000000;fill-opacity:1;stroke:none;stroke-width:0.265217"
             x="66.693794"
             y="10.030404"
             id="text3894"
             transform="scale(0.99406692,1.0059685)"><tspan
               sodipodi:role="line"
               id="tspan3892"
               x="66.693794"
               y="10.030404"
               style="font-style:normal;font-variant:normal;font-weight:normal;font-stretch:normal;font-size:4.24347px;font-family:sans-serif;-inkscape-font-specification:'sans-serif, Normal';font-variant-ligatures:normal;font-variant-caps:normal;font-variant-numeric:normal;font-variant-east-asian:normal;stroke-width:0.265217">Layer 3</tspan></text>
          <text
             xml:space="preserve"
             style="font-style:normal;font-variant:normal;font-weight:normal;font-stretch:normal;font-size:4.24347px;line-height:1.25;font-family:sans-serif;-inkscape-font-specification:'sans-serif, Normal';font-variant-ligatures:normal;font-variant-caps:normal;font-variant-numeric:normal;font-variant-east-asian:normal;fill:#000000;fill-opacity:1;stroke:none;stroke-width:0.265217"
             x="121.38236"
             y="10.030405"
             id="text3902"
             transform="scale(0.99406692,1.0059685)"><tspan
               sodipodi:role="line"
               id="tspan3900"
               x="121.38236"
               y="10.030405"
               style="font-style:normal;font-variant:normal;font-weight:normal;font-stretch:normal;font-size:4.24347px;font-family:sans-serif;-inkscape-font-specification:'sans-serif, Normal';font-variant-ligatures:normal;font-variant-caps:normal;font-variant-numeric:normal;font-variant-east-asian:normal;stroke-width:0.265217">Layer N - 2</tspan></text>
          <text
             xml:space="preserve"
             style="font-style:normal;font-variant:normal;font-weight:normal;font-stretch:normal;font-size:4.24347px;line-height:1.25;font-family:sans-serif;-inkscape-font-specification:'sans-serif, Normal';font-variant-ligatures:normal;font-variant-caps:normal;font-variant-numeric:normal;font-variant-east-asian:normal;fill:#000000;fill-opacity:1;stroke:none;stroke-width:0.265217"
             x="151.01035"
             y="10.002432"
             id="text3906"
             transform="scale(0.99406692,1.0059685)"><tspan
               sodipodi:role="line"
               id="tspan3904"
               x="151.01035"
               y="10.002432"
               style="font-style:normal;font-variant:normal;font-weight:normal;font-stretch:normal;font-size:4.24347px;font-family:sans-serif;-inkscape-font-specification:'sans-serif, Normal';font-variant-ligatures:normal;font-variant-caps:normal;font-variant-numeric:normal;font-variant-east-asian:normal;stroke-width:0.265217">Layer N - 1</tspan></text>
          <text
             xml:space="preserve"
             style="font-style:normal;font-variant:normal;font-weight:normal;font-stretch:normal;font-size:4.24347px;line-height:1.25;font-family:sans-serif;-inkscape-font-specification:'sans-serif, Normal';font-variant-ligatures:normal;font-variant-caps:normal;font-variant-numeric:normal;font-variant-east-asian:normal;fill:#000000;fill-opacity:1;stroke:none;stroke-width:0.265217"
             x="183.19032"
             y="10.002432"
             id="text3910"
             transform="scale(0.99406692,1.0059685)"><tspan
               sodipodi:role="line"
               id="tspan3908"
               x="183.19032"
               y="10.002432"
               style="font-style:normal;font-variant:normal;font-weight:normal;font-stretch:normal;font-size:4.24347px;font-family:sans-serif;-inkscape-font-specification:'sans-serif, Normal';font-variant-ligatures:normal;font-variant-caps:normal;font-variant-numeric:normal;font-variant-east-asian:normal;stroke-width:0.265217">Layer N</tspan></text>
          <g
             id="g4643"
             transform="translate(7.2501984,-26.013472)">
            <ellipse
               style="fill:#000000;fill-opacity:1;stroke:none;stroke-width:0.701676;stroke-linecap:butt;stroke-miterlimit:4;stroke-dasharray:none;stroke-opacity:1"
               id="path2073"
               cx="93.34317"
               cy="34.963108"
               rx="0.6591084"
               ry="0.66699964" />
            <ellipse
               style="fill:#000000;fill-opacity:1;stroke:none;stroke-width:0.701676;stroke-linecap:butt;stroke-miterlimit:4;stroke-dasharray:none;stroke-opacity:1"
               id="circle2075"
               cx="95.980827"
               cy="34.964069"
               rx="0.6591084"
               ry="0.66699964" />
            <ellipse
               style="fill:#000000;fill-opacity:1;stroke:none;stroke-width:0.701676;stroke-linecap:butt;stroke-miterlimit:4;stroke-dasharray:none;stroke-opacity:1"
               id="circle2077"
               cx="98.616005"
               cy="34.963196"
               rx="0.6591084"
               ry="0.66699964" />
          </g>
        </g>
      </g>
    </g>
  </g>
</svg>
