<?xml version="1.0" encoding="UTF-8" standalone="no"?>
<svg
   xmlns:dc="http://purl.org/dc/elements/1.1/"
   xmlns:cc="http://creativecommons.org/ns#"
   xmlns:rdf="http://www.w3.org/1999/02/22-rdf-syntax-ns#"
   xmlns:svg="http://www.w3.org/2000/svg"
   xmlns="http://www.w3.org/2000/svg"
   xmlns:sodipodi="http://sodipodi.sourceforge.net/DTD/sodipodi-0.dtd"
   xmlns:inkscape="http://www.inkscape.org/namespaces/inkscape"
   width="210mm"
   height="297mm"
   viewBox="0 0 210 297"
   version="1.1"
   id="svg8"
   inkscape:version="1.0.1 (3bc2e813f5, 2020-09-07)"
   sodipodi:docname="parameter_mutation.svg">
  <defs
     id="defs2">
    <marker
       style="overflow:visible;"
       id="Arrow2Send"
       refX="0.0"
       refY="0.0"
       orient="auto"
       inkscape:stockid="Arrow2Send"
       inkscape:isstock="true">
      <path
         transform="scale(0.3) rotate(180) translate(-2.3,0)"
         d="M 8.7185878,4.0337352 L -2.2072895,0.016013256 L 8.7185884,-4.0017078 C 6.9730900,-1.6296469 6.9831476,1.6157441 8.7185878,4.0337352 z "
         style="fill-rule:evenodd;stroke-width:0.625;stroke-linejoin:round;stroke:#000000;stroke-opacity:1;fill:#000000;fill-opacity:1"
         id="path1903" />
    </marker>
    <marker
       style="overflow:visible;"
       id="Arrow2Mend"
       refX="0.0"
       refY="0.0"
       orient="auto"
       inkscape:stockid="Arrow2Mend"
       inkscape:isstock="true">
      <path
         transform="scale(0.6) rotate(180) translate(0,0)"
         d="M 8.7185878,4.0337352 L -2.2072895,0.016013256 L 8.7185884,-4.0017078 C 6.9730900,-1.6296469 6.9831476,1.6157441 8.7185878,4.0337352 z "
         style="fill-rule:evenodd;stroke-width:0.625;stroke-linejoin:round;stroke:#000000;stroke-opacity:1;fill:#000000;fill-opacity:1"
         id="path1897" />
    </marker>
    <marker
       style="overflow:visible;"
       id="marker2224"
       refX="0.0"
       refY="0.0"
       orient="auto"
       inkscape:stockid="Arrow1Send"
       inkscape:isstock="true">
      <path
         transform="scale(0.2) rotate(180) translate(6,0)"
         style="fill-rule:evenodd;stroke:#000000;stroke-width:1pt;stroke-opacity:1;fill:#000000;fill-opacity:1"
         d="M 0.0,0.0 L 5.0,-5.0 L -12.5,0.0 L 5.0,5.0 L 0.0,0.0 z "
         id="path2222" />
    </marker>
    <marker
       style="overflow:visible;"
       id="Arrow1Send"
       refX="0.0"
       refY="0.0"
       orient="auto"
       inkscape:stockid="Arrow1Send"
       inkscape:isstock="true">
      <path
         transform="scale(0.2) rotate(180) translate(6,0)"
         style="fill-rule:evenodd;stroke:#000000;stroke-width:1pt;stroke-opacity:1;fill:#000000;fill-opacity:1"
         d="M 0.0,0.0 L 5.0,-5.0 L -12.5,0.0 L 5.0,5.0 L 0.0,0.0 z "
         id="path1885" />
    </marker>
    <marker
       style="overflow:visible;"
       id="Arrow2Lend"
       refX="0.0"
       refY="0.0"
       orient="auto"
       inkscape:stockid="Arrow2Lend"
       inkscape:isstock="true">
      <path
         transform="scale(1.1) rotate(180) translate(1,0)"
         d="M 8.7185878,4.0337352 L -2.2072895,0.016013256 L 8.7185884,-4.0017078 C 6.9730900,-1.6296469 6.9831476,1.6157441 8.7185878,4.0337352 z "
         style="fill-rule:evenodd;stroke-width:0.625;stroke-linejoin:round;stroke:#000000;stroke-opacity:1;fill:#000000;fill-opacity:1"
         id="path1891" />
    </marker>
    <marker
       style="overflow:visible;"
       id="Arrow1Mend"
       refX="0.0"
       refY="0.0"
       orient="auto"
       inkscape:stockid="Arrow1Mend"
       inkscape:isstock="true">
      <path
         transform="scale(0.4) rotate(180) translate(10,0)"
         style="fill-rule:evenodd;stroke:#000000;stroke-width:1pt;stroke-opacity:1;fill:#000000;fill-opacity:1"
         d="M 0.0,0.0 L 5.0,-5.0 L -12.5,0.0 L 5.0,5.0 L 0.0,0.0 z "
         id="path1879" />
    </marker>
  </defs>
  <sodipodi:namedview
     id="base"
     pagecolor="#ffffff"
     bordercolor="#666666"
     borderopacity="1.0"
     inkscape:pageopacity="0.0"
     inkscape:pageshadow="2"
     inkscape:zoom="1.4"
     inkscape:cx="406.85556"
     inkscape:cy="102.71712"
     inkscape:document-units="mm"
     inkscape:current-layer="layer1"
     inkscape:document-rotation="0"
     showgrid="true"
     inkscape:window-width="1916"
     inkscape:window-height="1041"
     inkscape:window-x="0"
     inkscape:window-y="35"
     inkscape:window-maximized="0">
    <inkscape:grid
       type="xygrid"
       id="grid833" />
  </sodipodi:namedview>
  <metadata
     id="metadata5">
    <rdf:RDF>
      <cc:Work
         rdf:about="">
        <dc:format>image/svg+xml</dc:format>
        <dc:type
           rdf:resource="http://purl.org/dc/dcmitype/StillImage" />
        <dc:title></dc:title>
      </cc:Work>
    </rdf:RDF>
  </metadata>
  <g
     inkscape:label="Layer 1"
     inkscape:groupmode="layer"
     id="layer1">
    <path
       style="fill:none;stroke:#000000;stroke-width:0.765;stroke-linecap:butt;stroke-linejoin:miter;stroke-miterlimit:4;stroke-dasharray:none;stroke-opacity:1;marker-end:url(#Arrow2Send)"
       d="M 95.249999,23.8125 H 116.41666"
       id="path1868" />
    <g
       id="g2874">
      <rect
         style="fill:#dfdfdf;fill-opacity:1;stroke:#4e4e4e;stroke-width:0.7;stroke-opacity:1"
         id="rect1862"
         width="5.2916665"
         height="5.2916665"
         x="201.08334"
         y="29.104166" />
      <text
         xml:space="preserve"
         style="font-style:normal;font-variant:normal;font-weight:normal;font-stretch:normal;font-size:4.23333px;line-height:1.25;font-family:sans-serif;-inkscape-font-specification:'sans-serif, Normal';font-variant-ligatures:normal;font-variant-caps:normal;font-variant-numeric:normal;font-variant-east-asian:normal;fill:#000000;fill-opacity:1;stroke:none;stroke-width:0.264583"
         x="201.67867"
         y="33.293056"
         id="text1866"><tspan
           sodipodi:role="line"
           id="tspan1864"
           x="201.67867"
           y="33.293056"
           style="font-style:normal;font-variant:normal;font-weight:normal;font-stretch:normal;font-size:4.23333px;font-family:sans-serif;-inkscape-font-specification:'sans-serif, Normal';font-variant-ligatures:normal;font-variant-caps:normal;font-variant-numeric:normal;font-variant-east-asian:normal;stroke-width:0.264583">.1</tspan></text>
      <rect
         style="fill:#dfdfdf;fill-opacity:1;stroke:#4e4e4e;stroke-width:0.7;stroke-opacity:1"
         id="rect1724"
         width="52.916668"
         height="7.9375005"
         x="121.70834"
         y="21.166664"
         ry="0" />
      <rect
         style="fill:#dfdfdf;fill-opacity:1;stroke:#4e4e4e;stroke-width:0.7;stroke-opacity:1"
         id="rect1726"
         width="31.750002"
         height="7.9375005"
         x="174.625"
         y="21.166664"
         ry="0" />
      <rect
         style="fill:#dfdfdf;fill-opacity:1;stroke:#4e4e4e;stroke-width:0.7;stroke-miterlimit:4;stroke-dasharray:none;stroke-opacity:1"
         id="rect1728"
         width="84.666664"
         height="7.9375"
         x="121.70834"
         y="13.229168" />
      <text
         xml:space="preserve"
         style="font-style:normal;font-variant:normal;font-weight:normal;font-stretch:normal;font-size:4.23333px;line-height:1.25;font-family:sans-serif;-inkscape-font-specification:'sans-serif, Normal';font-variant-ligatures:normal;font-variant-caps:normal;font-variant-numeric:normal;font-variant-east-asian:normal;fill:#000000;fill-opacity:1;stroke:none;stroke-width:0.264583"
         x="158.53194"
         y="18.365803"
         id="text1732"><tspan
           sodipodi:role="line"
           id="tspan1730"
           x="158.53194"
           y="18.365803"
           style="font-style:normal;font-variant:normal;font-weight:normal;font-stretch:normal;font-size:4.23333px;font-family:sans-serif;-inkscape-font-specification:'sans-serif, Normal';font-variant-ligatures:normal;font-variant-caps:normal;font-variant-numeric:normal;font-variant-east-asian:normal;stroke-width:0.264583">layer</tspan></text>
      <text
         xml:space="preserve"
         style="font-style:normal;font-variant:normal;font-weight:normal;font-stretch:normal;font-size:4.23333px;line-height:1.25;font-family:sans-serif;-inkscape-font-specification:'sans-serif, Normal';font-variant-ligatures:normal;font-variant-caps:normal;font-variant-numeric:normal;font-variant-east-asian:normal;fill:#000000;fill-opacity:1;stroke:none;stroke-width:0.264583"
         x="143.49408"
         y="26.181347"
         id="text1736"><tspan
           sodipodi:role="line"
           id="tspan1734"
           x="143.49408"
           y="26.181347"
           style="font-style:normal;font-variant:normal;font-weight:normal;font-stretch:normal;font-size:4.23333px;font-family:sans-serif;-inkscape-font-specification:'sans-serif, Normal';font-variant-ligatures:normal;font-variant-caps:normal;font-variant-numeric:normal;font-variant-east-asian:normal;stroke-width:0.264583">type</tspan></text>
      <text
         xml:space="preserve"
         style="font-style:normal;font-variant:normal;font-weight:normal;font-stretch:normal;font-size:4.23333px;line-height:1.25;font-family:sans-serif;-inkscape-font-specification:'sans-serif, Normal';font-variant-ligatures:normal;font-variant-caps:normal;font-variant-numeric:normal;font-variant-east-asian:normal;fill:#000000;fill-opacity:1;stroke:none;stroke-width:0.264583"
         x="178.13383"
         y="26.181347"
         id="text1740"><tspan
           sodipodi:role="line"
           id="tspan1738"
           x="178.13383"
           y="26.181347"
           style="font-style:normal;font-variant:normal;font-weight:normal;font-stretch:normal;font-size:4.23333px;font-family:sans-serif;-inkscape-font-specification:'sans-serif, Normal';font-variant-ligatures:normal;font-variant-caps:normal;font-variant-numeric:normal;font-variant-east-asian:normal;stroke-width:0.264583">parameters</tspan></text>
      <g
         id="g1748"
         transform="translate(105.83333)">
        <rect
           style="fill:#dfdfdf;fill-opacity:1;stroke:#4e4e4e;stroke-width:0.7;stroke-opacity:1"
           id="rect1742"
           width="5.2916665"
           height="5.2916665"
           x="15.875"
           y="29.104166" />
        <text
           xml:space="preserve"
           style="font-style:normal;font-variant:normal;font-weight:normal;font-stretch:normal;font-size:4.23333px;line-height:1.25;font-family:sans-serif;-inkscape-font-specification:'sans-serif, Normal';font-variant-ligatures:normal;font-variant-caps:normal;font-variant-numeric:normal;font-variant-east-asian:normal;fill:#000000;fill-opacity:1;stroke:none;stroke-width:0.264583"
           x="17.17518"
           y="33.290989"
           id="text1746"><tspan
             sodipodi:role="line"
             id="tspan1744"
             x="17.17518"
             y="33.290989"
             style="font-style:normal;font-variant:normal;font-weight:normal;font-stretch:normal;font-size:4.23333px;font-family:sans-serif;-inkscape-font-specification:'sans-serif, Normal';font-variant-ligatures:normal;font-variant-caps:normal;font-variant-numeric:normal;font-variant-east-asian:normal;stroke-width:0.264583">0</tspan></text>
      </g>
      <g
         id="g1756"
         transform="translate(111.125)">
        <rect
           style="fill:none;fill-opacity:1;stroke:#4e4e4e;stroke-width:0.7;stroke-opacity:1"
           id="rect1750"
           width="5.2916665"
           height="5.2916665"
           x="15.875"
           y="29.104166" />
        <text
           xml:space="preserve"
           style="font-style:normal;font-variant:normal;font-weight:normal;font-stretch:normal;font-size:4.23333px;line-height:1.25;font-family:sans-serif;-inkscape-font-specification:'sans-serif, Normal';font-variant-ligatures:normal;font-variant-caps:normal;font-variant-numeric:normal;font-variant-east-asian:normal;fill:#000000;fill-opacity:1;stroke:none;stroke-width:0.264583"
           x="17.13694"
           y="33.293056"
           id="text1754"><tspan
             sodipodi:role="line"
             id="tspan1752"
             x="17.13694"
             y="33.293056"
             style="font-style:normal;font-variant:normal;font-weight:normal;font-stretch:normal;font-size:4.23333px;font-family:sans-serif;-inkscape-font-specification:'sans-serif, Normal';font-variant-ligatures:normal;font-variant-caps:normal;font-variant-numeric:normal;font-variant-east-asian:normal;fill:#000000;fill-opacity:1;stroke-width:0.264583">1</tspan></text>
      </g>
      <g
         id="g1764"
         transform="translate(116.41666)">
        <rect
           style="fill:#dfdfdf;fill-opacity:1;stroke:#4e4e4e;stroke-width:0.7;stroke-opacity:1"
           id="rect1758"
           width="5.2916665"
           height="5.2916665"
           x="15.875"
           y="29.104166" />
        <text
           xml:space="preserve"
           style="font-style:normal;font-variant:normal;font-weight:normal;font-stretch:normal;font-size:4.23333px;line-height:1.25;font-family:sans-serif;-inkscape-font-specification:'sans-serif, Normal';font-variant-ligatures:normal;font-variant-caps:normal;font-variant-numeric:normal;font-variant-east-asian:normal;fill:#000000;fill-opacity:1;stroke:none;stroke-width:0.264583"
           x="17.17518"
           y="33.290989"
           id="text1762"><tspan
             sodipodi:role="line"
             id="tspan1760"
             x="17.17518"
             y="33.290989"
             style="font-style:normal;font-variant:normal;font-weight:normal;font-stretch:normal;font-size:4.23333px;font-family:sans-serif;-inkscape-font-specification:'sans-serif, Normal';font-variant-ligatures:normal;font-variant-caps:normal;font-variant-numeric:normal;font-variant-east-asian:normal;stroke-width:0.264583">0</tspan></text>
      </g>
      <g
         id="g1772"
         transform="translate(121.70833)">
        <rect
           style="fill:#dfdfdf;fill-opacity:1;stroke:#4e4e4e;stroke-width:0.7;stroke-opacity:1"
           id="rect1766"
           width="5.2916665"
           height="5.2916665"
           x="15.875"
           y="29.104166" />
        <text
           xml:space="preserve"
           style="font-style:normal;font-variant:normal;font-weight:normal;font-stretch:normal;font-size:4.23333px;line-height:1.25;font-family:sans-serif;-inkscape-font-specification:'sans-serif, Normal';font-variant-ligatures:normal;font-variant-caps:normal;font-variant-numeric:normal;font-variant-east-asian:normal;fill:#000000;fill-opacity:1;stroke:none;stroke-width:0.264583"
           x="17.17518"
           y="33.290989"
           id="text1770"><tspan
             sodipodi:role="line"
             id="tspan1768"
             x="17.17518"
             y="33.290989"
             style="font-style:normal;font-variant:normal;font-weight:normal;font-stretch:normal;font-size:4.23333px;font-family:sans-serif;-inkscape-font-specification:'sans-serif, Normal';font-variant-ligatures:normal;font-variant-caps:normal;font-variant-numeric:normal;font-variant-east-asian:normal;stroke-width:0.264583">0</tspan></text>
      </g>
      <g
         id="g1780"
         transform="translate(127)">
        <rect
           style="fill:none;fill-opacity:1;stroke:#4e4e4e;stroke-width:0.7;stroke-opacity:1"
           id="rect1774"
           width="5.2916665"
           height="5.2916665"
           x="15.875"
           y="29.104166" />
        <text
           xml:space="preserve"
           style="font-style:normal;font-variant:normal;font-weight:normal;font-stretch:normal;font-size:4.23333px;line-height:1.25;font-family:sans-serif;-inkscape-font-specification:'sans-serif, Normal';font-variant-ligatures:normal;font-variant-caps:normal;font-variant-numeric:normal;font-variant-east-asian:normal;fill:#e90000;fill-opacity:1;stroke:none;stroke-width:0.264583"
           x="17.17518"
           y="33.290989"
           id="text1778"><tspan
             sodipodi:role="line"
             id="tspan1776"
             x="17.17518"
             y="33.290989"
             style="font-style:normal;font-variant:normal;font-weight:normal;font-stretch:normal;font-size:4.23333px;font-family:sans-serif;-inkscape-font-specification:'sans-serif, Normal';font-variant-ligatures:normal;font-variant-caps:normal;font-variant-numeric:normal;font-variant-east-asian:normal;fill:#000000;fill-opacity:1;stroke-width:0.264583">0</tspan></text>
      </g>
      <g
         id="g1788"
         transform="translate(132.29166)">
        <rect
           style="fill:#dfdfdf;fill-opacity:1;stroke:#4e4e4e;stroke-width:0.7;stroke-opacity:1"
           id="rect1782"
           width="5.2916665"
           height="5.2916665"
           x="15.875"
           y="29.104166" />
        <text
           xml:space="preserve"
           style="font-style:normal;font-variant:normal;font-weight:normal;font-stretch:normal;font-size:4.23333px;line-height:1.25;font-family:sans-serif;-inkscape-font-specification:'sans-serif, Normal';font-variant-ligatures:normal;font-variant-caps:normal;font-variant-numeric:normal;font-variant-east-asian:normal;fill:#000000;fill-opacity:1;stroke:none;stroke-width:0.264583"
           x="17.17518"
           y="33.290989"
           id="text1786"><tspan
             sodipodi:role="line"
             id="tspan1784"
             x="17.17518"
             y="33.290989"
             style="font-style:normal;font-variant:normal;font-weight:normal;font-stretch:normal;font-size:4.23333px;font-family:sans-serif;-inkscape-font-specification:'sans-serif, Normal';font-variant-ligatures:normal;font-variant-caps:normal;font-variant-numeric:normal;font-variant-east-asian:normal;stroke-width:0.264583">0</tspan></text>
      </g>
      <g
         id="g1796"
         transform="translate(137.58333)">
        <rect
           style="fill:#dfdfdf;fill-opacity:1;stroke:#4e4e4e;stroke-width:0.7;stroke-opacity:1"
           id="rect1790"
           width="5.2916665"
           height="5.2916665"
           x="15.875"
           y="29.104166" />
        <text
           xml:space="preserve"
           style="font-style:normal;font-variant:normal;font-weight:normal;font-stretch:normal;font-size:4.23333px;line-height:1.25;font-family:sans-serif;-inkscape-font-specification:'sans-serif, Normal';font-variant-ligatures:normal;font-variant-caps:normal;font-variant-numeric:normal;font-variant-east-asian:normal;fill:#000000;fill-opacity:1;stroke:none;stroke-width:0.264583"
           x="17.17518"
           y="33.290989"
           id="text1794"><tspan
             sodipodi:role="line"
             id="tspan1792"
             x="17.17518"
             y="33.290989"
             style="font-style:normal;font-variant:normal;font-weight:normal;font-stretch:normal;font-size:4.23333px;font-family:sans-serif;-inkscape-font-specification:'sans-serif, Normal';font-variant-ligatures:normal;font-variant-caps:normal;font-variant-numeric:normal;font-variant-east-asian:normal;stroke-width:0.264583">0</tspan></text>
      </g>
      <g
         id="g1804"
         transform="translate(142.875)">
        <rect
           style="fill:#dfdfdf;fill-opacity:1;stroke:#4e4e4e;stroke-width:0.7;stroke-opacity:1"
           id="rect1798"
           width="5.2916665"
           height="5.2916665"
           x="15.875"
           y="29.104166" />
        <text
           xml:space="preserve"
           style="font-style:normal;font-variant:normal;font-weight:normal;font-stretch:normal;font-size:4.23333px;line-height:1.25;font-family:sans-serif;-inkscape-font-specification:'sans-serif, Normal';font-variant-ligatures:normal;font-variant-caps:normal;font-variant-numeric:normal;font-variant-east-asian:normal;fill:#000000;fill-opacity:1;stroke:none;stroke-width:0.264583"
           x="17.17518"
           y="33.290989"
           id="text1802"><tspan
             sodipodi:role="line"
             id="tspan1800"
             x="17.17518"
             y="33.290989"
             style="font-style:normal;font-variant:normal;font-weight:normal;font-stretch:normal;font-size:4.23333px;font-family:sans-serif;-inkscape-font-specification:'sans-serif, Normal';font-variant-ligatures:normal;font-variant-caps:normal;font-variant-numeric:normal;font-variant-east-asian:normal;stroke-width:0.264583">0</tspan></text>
      </g>
      <g
         id="g1812"
         transform="translate(148.16666)">
        <rect
           style="fill:#dfdfdf;fill-opacity:1;stroke:#4e4e4e;stroke-width:0.7;stroke-opacity:1"
           id="rect1806"
           width="5.2916665"
           height="5.2916665"
           x="15.875"
           y="29.104166" />
        <text
           xml:space="preserve"
           style="font-style:normal;font-variant:normal;font-weight:normal;font-stretch:normal;font-size:4.23333px;line-height:1.25;font-family:sans-serif;-inkscape-font-specification:'sans-serif, Normal';font-variant-ligatures:normal;font-variant-caps:normal;font-variant-numeric:normal;font-variant-east-asian:normal;fill:#000000;fill-opacity:1;stroke:none;stroke-width:0.264583"
           x="17.17518"
           y="33.290989"
           id="text1810"><tspan
             sodipodi:role="line"
             id="tspan1808"
             x="17.17518"
             y="33.290989"
             style="font-style:normal;font-variant:normal;font-weight:normal;font-stretch:normal;font-size:4.23333px;font-family:sans-serif;-inkscape-font-specification:'sans-serif, Normal';font-variant-ligatures:normal;font-variant-caps:normal;font-variant-numeric:normal;font-variant-east-asian:normal;stroke-width:0.264583">0</tspan></text>
      </g>
      <g
         id="g1820"
         transform="translate(153.45833)">
        <rect
           style="fill:#dfdfdf;fill-opacity:1;stroke:#4e4e4e;stroke-width:0.7;stroke-opacity:1"
           id="rect1814"
           width="5.2916665"
           height="5.2916665"
           x="15.875"
           y="29.104166" />
        <text
           xml:space="preserve"
           style="font-style:normal;font-variant:normal;font-weight:normal;font-stretch:normal;font-size:4.23333px;line-height:1.25;font-family:sans-serif;-inkscape-font-specification:'sans-serif, Normal';font-variant-ligatures:normal;font-variant-caps:normal;font-variant-numeric:normal;font-variant-east-asian:normal;fill:#000000;fill-opacity:1;stroke:none;stroke-width:0.264583"
           x="17.17518"
           y="33.290989"
           id="text1818"><tspan
             sodipodi:role="line"
             id="tspan1816"
             x="17.17518"
             y="33.290989"
             style="font-style:normal;font-variant:normal;font-weight:normal;font-stretch:normal;font-size:4.23333px;font-family:sans-serif;-inkscape-font-specification:'sans-serif, Normal';font-variant-ligatures:normal;font-variant-caps:normal;font-variant-numeric:normal;font-variant-east-asian:normal;stroke-width:0.264583">0</tspan></text>
      </g>
      <g
         id="g1828"
         transform="translate(158.75)">
        <rect
           style="fill:#dfdfdf;fill-opacity:1;stroke:#4e4e4e;stroke-width:0.7;stroke-opacity:1"
           id="rect1822"
           width="5.2916665"
           height="5.2916665"
           x="15.875"
           y="29.104166" />
        <text
           xml:space="preserve"
           style="font-style:normal;font-variant:normal;font-weight:normal;font-stretch:normal;font-size:4.23333px;line-height:1.25;font-family:sans-serif;-inkscape-font-specification:'sans-serif, Normal';font-variant-ligatures:normal;font-variant-caps:normal;font-variant-numeric:normal;font-variant-east-asian:normal;fill:#000000;fill-opacity:1;stroke:none;stroke-width:0.264583"
           x="16.470314"
           y="33.293056"
           id="text1826"><tspan
             sodipodi:role="line"
             id="tspan1824"
             x="16.470314"
             y="33.293056"
             style="font-style:normal;font-variant:normal;font-weight:normal;font-stretch:normal;font-size:4.23333px;font-family:sans-serif;-inkscape-font-specification:'sans-serif, Normal';font-variant-ligatures:normal;font-variant-caps:normal;font-variant-numeric:normal;font-variant-east-asian:normal;stroke-width:0.264583">.1</tspan></text>
      </g>
      <g
         id="g1836"
         transform="translate(164.04166)">
        <rect
           style="fill:#dfdf3a;fill-opacity:1;stroke:#4e4e4e;stroke-width:0.7;stroke-opacity:1"
           id="rect1830"
           width="5.2916665"
           height="5.2916665"
           x="15.875"
           y="29.104166" />
        <text
           xml:space="preserve"
           style="font-style:normal;font-variant:normal;font-weight:normal;font-stretch:normal;font-size:4.23333px;line-height:1.25;font-family:sans-serif;-inkscape-font-specification:'sans-serif, Normal';font-variant-ligatures:normal;font-variant-caps:normal;font-variant-numeric:normal;font-variant-east-asian:normal;fill:#e90000;fill-opacity:1;stroke:none;stroke-width:0.264583"
           x="16.408302"
           y="33.290989"
           id="text1834"><tspan
             sodipodi:role="line"
             id="tspan1832"
             x="16.408302"
             y="33.290989"
             style="font-style:normal;font-variant:normal;font-weight:normal;font-stretch:normal;font-size:4.23333px;font-family:sans-serif;-inkscape-font-specification:'sans-serif, Normal';font-variant-ligatures:normal;font-variant-caps:normal;font-variant-numeric:normal;font-variant-east-asian:normal;fill:#e90000;fill-opacity:1;stroke-width:0.264583">.6</tspan></text>
      </g>
      <g
         id="g1844"
         transform="translate(169.33333)">
        <rect
           style="fill:#dfdfdf;fill-opacity:1;stroke:#4e4e4e;stroke-width:0.7;stroke-opacity:1"
           id="rect1838"
           width="5.2916665"
           height="5.2916665"
           x="15.875"
           y="29.104166" />
        <text
           xml:space="preserve"
           style="font-style:normal;font-variant:normal;font-weight:normal;font-stretch:normal;font-size:4.23333px;line-height:1.25;font-family:sans-serif;-inkscape-font-specification:'sans-serif, Normal';font-variant-ligatures:normal;font-variant-caps:normal;font-variant-numeric:normal;font-variant-east-asian:normal;fill:#000000;fill-opacity:1;stroke:none;stroke-width:0.264583"
           x="16.470314"
           y="33.293056"
           id="text1842"><tspan
             sodipodi:role="line"
             id="tspan1840"
             x="16.470314"
             y="33.293056"
             style="font-style:normal;font-variant:normal;font-weight:normal;font-stretch:normal;font-size:4.23333px;font-family:sans-serif;-inkscape-font-specification:'sans-serif, Normal';font-variant-ligatures:normal;font-variant-caps:normal;font-variant-numeric:normal;font-variant-east-asian:normal;stroke-width:0.264583">.1</tspan></text>
      </g>
      <g
         id="g1852"
         transform="translate(174.625)">
        <rect
           style="fill:#dfdfdf;fill-opacity:1;stroke:#4e4e4e;stroke-width:0.7;stroke-opacity:1"
           id="rect1846"
           width="5.2916665"
           height="5.2916665"
           x="15.875"
           y="29.104166" />
        <text
           xml:space="preserve"
           style="font-style:normal;font-variant:normal;font-weight:normal;font-stretch:normal;font-size:4.23333px;line-height:1.25;font-family:sans-serif;-inkscape-font-specification:'sans-serif, Normal';font-variant-ligatures:normal;font-variant-caps:normal;font-variant-numeric:normal;font-variant-east-asian:normal;fill:#000000;fill-opacity:1;stroke:none;stroke-width:0.264583"
           x="16.470314"
           y="33.293056"
           id="text1850"><tspan
             sodipodi:role="line"
             id="tspan1848"
             x="16.470314"
             y="33.293056"
             style="font-style:normal;font-variant:normal;font-weight:normal;font-stretch:normal;font-size:4.23333px;font-family:sans-serif;-inkscape-font-specification:'sans-serif, Normal';font-variant-ligatures:normal;font-variant-caps:normal;font-variant-numeric:normal;font-variant-east-asian:normal;stroke-width:0.264583">.1</tspan></text>
      </g>
      <g
         id="g1860"
         transform="translate(179.91666)">
        <rect
           style="fill:#dfdfdf;fill-opacity:1;stroke:#4e4e4e;stroke-width:0.7;stroke-opacity:1"
           id="rect1854"
           width="5.2916665"
           height="5.2916665"
           x="15.875"
           y="29.104166" />
        <text
           xml:space="preserve"
           style="font-style:normal;font-variant:normal;font-weight:normal;font-stretch:normal;font-size:4.23333px;line-height:1.25;font-family:sans-serif;-inkscape-font-specification:'sans-serif, Normal';font-variant-ligatures:normal;font-variant-caps:normal;font-variant-numeric:normal;font-variant-east-asian:normal;fill:#000000;fill-opacity:1;stroke:none;stroke-width:0.264583"
           x="16.393833"
           y="33.293056"
           id="text1858"><tspan
             sodipodi:role="line"
             id="tspan1856"
             x="16.393833"
             y="33.293056"
             style="font-style:normal;font-variant:normal;font-weight:normal;font-stretch:normal;font-size:4.23333px;font-family:sans-serif;-inkscape-font-specification:'sans-serif, Normal';font-variant-ligatures:normal;font-variant-caps:normal;font-variant-numeric:normal;font-variant-east-asian:normal;stroke-width:0.264583">.4</tspan></text>
      </g>
    </g>
    <text
       xml:space="preserve"
       style="font-style:normal;font-variant:normal;font-weight:normal;font-stretch:normal;font-size:4.23333px;line-height:1.25;font-family:sans-serif;-inkscape-font-specification:'sans-serif, Normal';font-variant-ligatures:normal;font-variant-caps:normal;font-variant-numeric:normal;font-variant-east-asian:normal;fill:#000000;fill-opacity:1;stroke:none;stroke-width:0.264583"
       x="128.40976"
       y="10.436341"
       id="text2723"><tspan
         sodipodi:role="line"
         id="tspan2721"
         x="128.40976"
         y="10.436341"
         style="font-style:normal;font-variant:normal;font-weight:normal;font-stretch:normal;font-size:4.23333px;font-family:sans-serif;-inkscape-font-specification:'sans-serif, Normal';font-variant-ligatures:normal;font-variant-caps:normal;font-variant-numeric:normal;font-variant-east-asian:normal;stroke-width:0.264583">convolutional layer, kernel-size: 9</tspan></text>
    <text
       xml:space="preserve"
       style="font-style:normal;font-variant:normal;font-weight:normal;font-stretch:normal;font-size:4.23333px;line-height:1.25;font-family:sans-serif;-inkscape-font-specification:'sans-serif, Normal';font-variant-ligatures:normal;font-variant-caps:normal;font-variant-numeric:normal;font-variant-east-asian:normal;fill:#000000;fill-opacity:1;stroke:none;stroke-width:0.264583"
       x="12.013755"
       y="10.436341"
       id="text2719"><tspan
         sodipodi:role="line"
         id="tspan2717"
         x="12.013755"
         y="10.436341"
         style="font-style:normal;font-variant:normal;font-weight:normal;font-stretch:normal;font-size:4.23333px;font-family:sans-serif;-inkscape-font-specification:'sans-serif, Normal';font-variant-ligatures:normal;font-variant-caps:normal;font-variant-numeric:normal;font-variant-east-asian:normal;stroke-width:0.264583">convolutional layer, kernel-size: 3</tspan></text>
    <rect
       style="fill:#dfdfdf;fill-opacity:1;stroke:#4e4e4e;stroke-width:0.7;stroke-opacity:1"
       id="rect2571"
       width="5.2916665"
       height="5.2916665"
       x="84.666664"
       y="29.104168" />
    <text
       xml:space="preserve"
       style="font-style:normal;font-variant:normal;font-weight:normal;font-stretch:normal;font-size:4.23333px;line-height:1.25;font-family:sans-serif;-inkscape-font-specification:'sans-serif, Normal';font-variant-ligatures:normal;font-variant-caps:normal;font-variant-numeric:normal;font-variant-east-asian:normal;fill:#000000;fill-opacity:1;stroke:none;stroke-width:0.264583"
       x="85.261986"
       y="33.29306"
       id="text2575"><tspan
         sodipodi:role="line"
         id="tspan2573"
         x="85.261986"
         y="33.29306"
         style="font-style:normal;font-variant:normal;font-weight:normal;font-stretch:normal;font-size:4.23333px;font-family:sans-serif;-inkscape-font-specification:'sans-serif, Normal';font-variant-ligatures:normal;font-variant-caps:normal;font-variant-numeric:normal;font-variant-east-asian:normal;stroke-width:0.264583">.1</tspan></text>
    <g
       id="g2715"
       transform="translate(-116.41668)">
      <rect
         style="fill:#dfdfdf;fill-opacity:1;stroke:#4e4e4e;stroke-width:0.7;stroke-opacity:1"
         id="rect2577"
         width="52.916668"
         height="7.9375005"
         x="121.70834"
         y="21.166664"
         ry="0" />
      <rect
         style="fill:#dfdfdf;fill-opacity:1;stroke:#4e4e4e;stroke-width:0.7;stroke-opacity:1"
         id="rect2579"
         width="31.750002"
         height="7.9375005"
         x="174.625"
         y="21.166664"
         ry="0" />
      <rect
         style="fill:#dfdfdf;fill-opacity:1;stroke:#4e4e4e;stroke-width:0.7;stroke-miterlimit:4;stroke-dasharray:none;stroke-opacity:1"
         id="rect2581"
         width="84.666664"
         height="7.9375"
         x="121.70834"
         y="13.229168" />
      <text
         xml:space="preserve"
         style="font-style:normal;font-variant:normal;font-weight:normal;font-stretch:normal;font-size:4.23333px;line-height:1.25;font-family:sans-serif;-inkscape-font-specification:'sans-serif, Normal';font-variant-ligatures:normal;font-variant-caps:normal;font-variant-numeric:normal;font-variant-east-asian:normal;fill:#000000;fill-opacity:1;stroke:none;stroke-width:0.264583"
         x="158.53194"
         y="18.365803"
         id="text2585"><tspan
           sodipodi:role="line"
           id="tspan2583"
           x="158.53194"
           y="18.365803"
           style="font-style:normal;font-variant:normal;font-weight:normal;font-stretch:normal;font-size:4.23333px;font-family:sans-serif;-inkscape-font-specification:'sans-serif, Normal';font-variant-ligatures:normal;font-variant-caps:normal;font-variant-numeric:normal;font-variant-east-asian:normal;stroke-width:0.264583">layer</tspan></text>
      <text
         xml:space="preserve"
         style="font-style:normal;font-variant:normal;font-weight:normal;font-stretch:normal;font-size:4.23333px;line-height:1.25;font-family:sans-serif;-inkscape-font-specification:'sans-serif, Normal';font-variant-ligatures:normal;font-variant-caps:normal;font-variant-numeric:normal;font-variant-east-asian:normal;fill:#000000;fill-opacity:1;stroke:none;stroke-width:0.264583"
         x="143.49408"
         y="26.181347"
         id="text2589"><tspan
           sodipodi:role="line"
           id="tspan2587"
           x="143.49408"
           y="26.181347"
           style="font-style:normal;font-variant:normal;font-weight:normal;font-stretch:normal;font-size:4.23333px;font-family:sans-serif;-inkscape-font-specification:'sans-serif, Normal';font-variant-ligatures:normal;font-variant-caps:normal;font-variant-numeric:normal;font-variant-east-asian:normal;stroke-width:0.264583">type</tspan></text>
      <text
         xml:space="preserve"
         style="font-style:normal;font-variant:normal;font-weight:normal;font-stretch:normal;font-size:4.23333px;line-height:1.25;font-family:sans-serif;-inkscape-font-specification:'sans-serif, Normal';font-variant-ligatures:normal;font-variant-caps:normal;font-variant-numeric:normal;font-variant-east-asian:normal;fill:#000000;fill-opacity:1;stroke:none;stroke-width:0.264583"
         x="178.13383"
         y="26.181347"
         id="text2593"><tspan
           sodipodi:role="line"
           id="tspan2591"
           x="178.13383"
           y="26.181347"
           style="font-style:normal;font-variant:normal;font-weight:normal;font-stretch:normal;font-size:4.23333px;font-family:sans-serif;-inkscape-font-specification:'sans-serif, Normal';font-variant-ligatures:normal;font-variant-caps:normal;font-variant-numeric:normal;font-variant-east-asian:normal;stroke-width:0.264583">parameters</tspan></text>
      <g
         id="g2601"
         transform="translate(105.83333)">
        <rect
           style="fill:#dfdfdf;fill-opacity:1;stroke:#4e4e4e;stroke-width:0.7;stroke-opacity:1"
           id="rect2595"
           width="5.2916665"
           height="5.2916665"
           x="15.875"
           y="29.104166" />
        <text
           xml:space="preserve"
           style="font-style:normal;font-variant:normal;font-weight:normal;font-stretch:normal;font-size:4.23333px;line-height:1.25;font-family:sans-serif;-inkscape-font-specification:'sans-serif, Normal';font-variant-ligatures:normal;font-variant-caps:normal;font-variant-numeric:normal;font-variant-east-asian:normal;fill:#000000;fill-opacity:1;stroke:none;stroke-width:0.264583"
           x="17.17518"
           y="33.290989"
           id="text2599"><tspan
             sodipodi:role="line"
             id="tspan2597"
             x="17.17518"
             y="33.290989"
             style="font-style:normal;font-variant:normal;font-weight:normal;font-stretch:normal;font-size:4.23333px;font-family:sans-serif;-inkscape-font-specification:'sans-serif, Normal';font-variant-ligatures:normal;font-variant-caps:normal;font-variant-numeric:normal;font-variant-east-asian:normal;stroke-width:0.264583">0</tspan></text>
      </g>
      <g
         id="g2609"
         transform="translate(111.125)">
        <rect
           style="fill:none;fill-opacity:1;stroke:#4e4e4e;stroke-width:0.7;stroke-opacity:1"
           id="rect2603"
           width="5.2916665"
           height="5.2916665"
           x="15.875"
           y="29.104166" />
        <text
           xml:space="preserve"
           style="font-style:normal;font-variant:normal;font-weight:normal;font-stretch:normal;font-size:4.23333px;line-height:1.25;font-family:sans-serif;-inkscape-font-specification:'sans-serif, Normal';font-variant-ligatures:normal;font-variant-caps:normal;font-variant-numeric:normal;font-variant-east-asian:normal;fill:#000000;fill-opacity:1;stroke:none;stroke-width:0.264583"
           x="17.13694"
           y="33.293056"
           id="text2607"><tspan
             sodipodi:role="line"
             id="tspan2605"
             x="17.13694"
             y="33.293056"
             style="font-style:normal;font-variant:normal;font-weight:normal;font-stretch:normal;font-size:4.23333px;font-family:sans-serif;-inkscape-font-specification:'sans-serif, Normal';font-variant-ligatures:normal;font-variant-caps:normal;font-variant-numeric:normal;font-variant-east-asian:normal;fill:#000000;fill-opacity:1;stroke-width:0.264583">1</tspan></text>
      </g>
      <g
         id="g2617"
         transform="translate(116.41666)">
        <rect
           style="fill:#dfdfdf;fill-opacity:1;stroke:#4e4e4e;stroke-width:0.7;stroke-opacity:1"
           id="rect2611"
           width="5.2916665"
           height="5.2916665"
           x="15.875"
           y="29.104166" />
        <text
           xml:space="preserve"
           style="font-style:normal;font-variant:normal;font-weight:normal;font-stretch:normal;font-size:4.23333px;line-height:1.25;font-family:sans-serif;-inkscape-font-specification:'sans-serif, Normal';font-variant-ligatures:normal;font-variant-caps:normal;font-variant-numeric:normal;font-variant-east-asian:normal;fill:#000000;fill-opacity:1;stroke:none;stroke-width:0.264583"
           x="17.17518"
           y="33.290989"
           id="text2615"><tspan
             sodipodi:role="line"
             id="tspan2613"
             x="17.17518"
             y="33.290989"
             style="font-style:normal;font-variant:normal;font-weight:normal;font-stretch:normal;font-size:4.23333px;font-family:sans-serif;-inkscape-font-specification:'sans-serif, Normal';font-variant-ligatures:normal;font-variant-caps:normal;font-variant-numeric:normal;font-variant-east-asian:normal;stroke-width:0.264583">0</tspan></text>
      </g>
      <g
         id="g2625"
         transform="translate(121.70833)">
        <rect
           style="fill:#dfdfdf;fill-opacity:1;stroke:#4e4e4e;stroke-width:0.7;stroke-opacity:1"
           id="rect2619"
           width="5.2916665"
           height="5.2916665"
           x="15.875"
           y="29.104166" />
        <text
           xml:space="preserve"
           style="font-style:normal;font-variant:normal;font-weight:normal;font-stretch:normal;font-size:4.23333px;line-height:1.25;font-family:sans-serif;-inkscape-font-specification:'sans-serif, Normal';font-variant-ligatures:normal;font-variant-caps:normal;font-variant-numeric:normal;font-variant-east-asian:normal;fill:#000000;fill-opacity:1;stroke:none;stroke-width:0.264583"
           x="17.17518"
           y="33.290989"
           id="text2623"><tspan
             sodipodi:role="line"
             id="tspan2621"
             x="17.17518"
             y="33.290989"
             style="font-style:normal;font-variant:normal;font-weight:normal;font-stretch:normal;font-size:4.23333px;font-family:sans-serif;-inkscape-font-specification:'sans-serif, Normal';font-variant-ligatures:normal;font-variant-caps:normal;font-variant-numeric:normal;font-variant-east-asian:normal;stroke-width:0.264583">0</tspan></text>
      </g>
      <g
         id="g2633"
         transform="translate(127)">
        <rect
           style="fill:none;fill-opacity:1;stroke:#4e4e4e;stroke-width:0.7;stroke-opacity:1"
           id="rect2627"
           width="5.2916665"
           height="5.2916665"
           x="15.875"
           y="29.104166" />
        <text
           xml:space="preserve"
           style="font-style:normal;font-variant:normal;font-weight:normal;font-stretch:normal;font-size:4.23333px;line-height:1.25;font-family:sans-serif;-inkscape-font-specification:'sans-serif, Normal';font-variant-ligatures:normal;font-variant-caps:normal;font-variant-numeric:normal;font-variant-east-asian:normal;fill:#e90000;fill-opacity:1;stroke:none;stroke-width:0.264583"
           x="17.17518"
           y="33.290989"
           id="text2631"><tspan
             sodipodi:role="line"
             id="tspan2629"
             x="17.17518"
             y="33.290989"
             style="font-style:normal;font-variant:normal;font-weight:normal;font-stretch:normal;font-size:4.23333px;font-family:sans-serif;-inkscape-font-specification:'sans-serif, Normal';font-variant-ligatures:normal;font-variant-caps:normal;font-variant-numeric:normal;font-variant-east-asian:normal;fill:#000000;fill-opacity:1;stroke-width:0.264583">0</tspan></text>
      </g>
      <g
         id="g2641"
         transform="translate(132.29166)">
        <rect
           style="fill:#dfdfdf;fill-opacity:1;stroke:#4e4e4e;stroke-width:0.7;stroke-opacity:1"
           id="rect2635"
           width="5.2916665"
           height="5.2916665"
           x="15.875"
           y="29.104166" />
        <text
           xml:space="preserve"
           style="font-style:normal;font-variant:normal;font-weight:normal;font-stretch:normal;font-size:4.23333px;line-height:1.25;font-family:sans-serif;-inkscape-font-specification:'sans-serif, Normal';font-variant-ligatures:normal;font-variant-caps:normal;font-variant-numeric:normal;font-variant-east-asian:normal;fill:#000000;fill-opacity:1;stroke:none;stroke-width:0.264583"
           x="17.17518"
           y="33.290989"
           id="text2639"><tspan
             sodipodi:role="line"
             id="tspan2637"
             x="17.17518"
             y="33.290989"
             style="font-style:normal;font-variant:normal;font-weight:normal;font-stretch:normal;font-size:4.23333px;font-family:sans-serif;-inkscape-font-specification:'sans-serif, Normal';font-variant-ligatures:normal;font-variant-caps:normal;font-variant-numeric:normal;font-variant-east-asian:normal;stroke-width:0.264583">0</tspan></text>
      </g>
      <g
         id="g2649"
         transform="translate(137.58333)">
        <rect
           style="fill:#dfdfdf;fill-opacity:1;stroke:#4e4e4e;stroke-width:0.7;stroke-opacity:1"
           id="rect2643"
           width="5.2916665"
           height="5.2916665"
           x="15.875"
           y="29.104166" />
        <text
           xml:space="preserve"
           style="font-style:normal;font-variant:normal;font-weight:normal;font-stretch:normal;font-size:4.23333px;line-height:1.25;font-family:sans-serif;-inkscape-font-specification:'sans-serif, Normal';font-variant-ligatures:normal;font-variant-caps:normal;font-variant-numeric:normal;font-variant-east-asian:normal;fill:#000000;fill-opacity:1;stroke:none;stroke-width:0.264583"
           x="17.17518"
           y="33.290989"
           id="text2647"><tspan
             sodipodi:role="line"
             id="tspan2645"
             x="17.17518"
             y="33.290989"
             style="font-style:normal;font-variant:normal;font-weight:normal;font-stretch:normal;font-size:4.23333px;font-family:sans-serif;-inkscape-font-specification:'sans-serif, Normal';font-variant-ligatures:normal;font-variant-caps:normal;font-variant-numeric:normal;font-variant-east-asian:normal;stroke-width:0.264583">0</tspan></text>
      </g>
      <g
         id="g2657"
         transform="translate(142.875)">
        <rect
           style="fill:#dfdfdf;fill-opacity:1;stroke:#4e4e4e;stroke-width:0.7;stroke-opacity:1"
           id="rect2651"
           width="5.2916665"
           height="5.2916665"
           x="15.875"
           y="29.104166" />
        <text
           xml:space="preserve"
           style="font-style:normal;font-variant:normal;font-weight:normal;font-stretch:normal;font-size:4.23333px;line-height:1.25;font-family:sans-serif;-inkscape-font-specification:'sans-serif, Normal';font-variant-ligatures:normal;font-variant-caps:normal;font-variant-numeric:normal;font-variant-east-asian:normal;fill:#000000;fill-opacity:1;stroke:none;stroke-width:0.264583"
           x="17.17518"
           y="33.290989"
           id="text2655"><tspan
             sodipodi:role="line"
             id="tspan2653"
             x="17.17518"
             y="33.290989"
             style="font-style:normal;font-variant:normal;font-weight:normal;font-stretch:normal;font-size:4.23333px;font-family:sans-serif;-inkscape-font-specification:'sans-serif, Normal';font-variant-ligatures:normal;font-variant-caps:normal;font-variant-numeric:normal;font-variant-east-asian:normal;stroke-width:0.264583">0</tspan></text>
      </g>
      <g
         id="g2665"
         transform="translate(148.16666)">
        <rect
           style="fill:#dfdfdf;fill-opacity:1;stroke:#4e4e4e;stroke-width:0.7;stroke-opacity:1"
           id="rect2659"
           width="5.2916665"
           height="5.2916665"
           x="15.875"
           y="29.104166" />
        <text
           xml:space="preserve"
           style="font-style:normal;font-variant:normal;font-weight:normal;font-stretch:normal;font-size:4.23333px;line-height:1.25;font-family:sans-serif;-inkscape-font-specification:'sans-serif, Normal';font-variant-ligatures:normal;font-variant-caps:normal;font-variant-numeric:normal;font-variant-east-asian:normal;fill:#000000;fill-opacity:1;stroke:none;stroke-width:0.264583"
           x="17.17518"
           y="33.290989"
           id="text2663"><tspan
             sodipodi:role="line"
             id="tspan2661"
             x="17.17518"
             y="33.290989"
             style="font-style:normal;font-variant:normal;font-weight:normal;font-stretch:normal;font-size:4.23333px;font-family:sans-serif;-inkscape-font-specification:'sans-serif, Normal';font-variant-ligatures:normal;font-variant-caps:normal;font-variant-numeric:normal;font-variant-east-asian:normal;stroke-width:0.264583">0</tspan></text>
      </g>
      <g
         id="g2673"
         transform="translate(153.45833)">
        <rect
           style="fill:#dfdfdf;fill-opacity:1;stroke:#4e4e4e;stroke-width:0.7;stroke-opacity:1"
           id="rect2667"
           width="5.2916665"
           height="5.2916665"
           x="15.875"
           y="29.104166" />
        <text
           xml:space="preserve"
           style="font-style:normal;font-variant:normal;font-weight:normal;font-stretch:normal;font-size:4.23333px;line-height:1.25;font-family:sans-serif;-inkscape-font-specification:'sans-serif, Normal';font-variant-ligatures:normal;font-variant-caps:normal;font-variant-numeric:normal;font-variant-east-asian:normal;fill:#000000;fill-opacity:1;stroke:none;stroke-width:0.264583"
           x="17.17518"
           y="33.290989"
           id="text2671"><tspan
             sodipodi:role="line"
             id="tspan2669"
             x="17.17518"
             y="33.290989"
             style="font-style:normal;font-variant:normal;font-weight:normal;font-stretch:normal;font-size:4.23333px;font-family:sans-serif;-inkscape-font-specification:'sans-serif, Normal';font-variant-ligatures:normal;font-variant-caps:normal;font-variant-numeric:normal;font-variant-east-asian:normal;stroke-width:0.264583">0</tspan></text>
      </g>
      <g
         id="g2681"
         transform="translate(158.75)">
        <rect
           style="fill:#dfdfdf;fill-opacity:1;stroke:#4e4e4e;stroke-width:0.7;stroke-opacity:1"
           id="rect2675"
           width="5.2916665"
           height="5.2916665"
           x="15.875"
           y="29.104166" />
        <text
           xml:space="preserve"
           style="font-style:normal;font-variant:normal;font-weight:normal;font-stretch:normal;font-size:4.23333px;line-height:1.25;font-family:sans-serif;-inkscape-font-specification:'sans-serif, Normal';font-variant-ligatures:normal;font-variant-caps:normal;font-variant-numeric:normal;font-variant-east-asian:normal;fill:#000000;fill-opacity:1;stroke:none;stroke-width:0.264583"
           x="16.470314"
           y="33.293056"
           id="text2679"><tspan
             sodipodi:role="line"
             id="tspan2677"
             x="16.470314"
             y="33.293056"
             style="font-style:normal;font-variant:normal;font-weight:normal;font-stretch:normal;font-size:4.23333px;font-family:sans-serif;-inkscape-font-specification:'sans-serif, Normal';font-variant-ligatures:normal;font-variant-caps:normal;font-variant-numeric:normal;font-variant-east-asian:normal;stroke-width:0.264583">.1</tspan></text>
      </g>
      <g
         id="g2689"
         transform="translate(164.04166)">
        <rect
           style="fill:#dfdf3a;fill-opacity:1;stroke:#4e4e4e;stroke-width:0.7;stroke-opacity:1"
           id="rect2683"
           width="5.2916665"
           height="5.2916665"
           x="15.875"
           y="29.104166" />
        <text
           xml:space="preserve"
           style="font-style:normal;font-variant:normal;font-weight:normal;font-stretch:normal;font-size:4.23333px;line-height:1.25;font-family:sans-serif;-inkscape-font-specification:'sans-serif, Normal';font-variant-ligatures:normal;font-variant-caps:normal;font-variant-numeric:normal;font-variant-east-asian:normal;fill:#e90000;fill-opacity:1;stroke:none;stroke-width:0.264583"
           x="16.486851"
           y="33.320961"
           id="text2687"><tspan
             sodipodi:role="line"
             id="tspan2685"
             x="16.486851"
             y="33.320961"
             style="font-style:normal;font-variant:normal;font-weight:normal;font-stretch:normal;font-size:4.23333px;font-family:sans-serif;-inkscape-font-specification:'sans-serif, Normal';font-variant-ligatures:normal;font-variant-caps:normal;font-variant-numeric:normal;font-variant-east-asian:normal;fill:#e90000;fill-opacity:1;stroke-width:0.264583">.2</tspan></text>
      </g>
      <g
         id="g2697"
         transform="translate(169.33333)">
        <rect
           style="fill:#dfdfdf;fill-opacity:1;stroke:#4e4e4e;stroke-width:0.7;stroke-opacity:1"
           id="rect2691"
           width="5.2916665"
           height="5.2916665"
           x="15.875"
           y="29.104166" />
        <text
           xml:space="preserve"
           style="font-style:normal;font-variant:normal;font-weight:normal;font-stretch:normal;font-size:4.23333px;line-height:1.25;font-family:sans-serif;-inkscape-font-specification:'sans-serif, Normal';font-variant-ligatures:normal;font-variant-caps:normal;font-variant-numeric:normal;font-variant-east-asian:normal;fill:#000000;fill-opacity:1;stroke:none;stroke-width:0.264583"
           x="16.470314"
           y="33.293056"
           id="text2695"><tspan
             sodipodi:role="line"
             id="tspan2693"
             x="16.470314"
             y="33.293056"
             style="font-style:normal;font-variant:normal;font-weight:normal;font-stretch:normal;font-size:4.23333px;font-family:sans-serif;-inkscape-font-specification:'sans-serif, Normal';font-variant-ligatures:normal;font-variant-caps:normal;font-variant-numeric:normal;font-variant-east-asian:normal;stroke-width:0.264583">.1</tspan></text>
      </g>
      <g
         id="g2705"
         transform="translate(174.625)">
        <rect
           style="fill:#dfdfdf;fill-opacity:1;stroke:#4e4e4e;stroke-width:0.7;stroke-opacity:1"
           id="rect2699"
           width="5.2916665"
           height="5.2916665"
           x="15.875"
           y="29.104166" />
        <text
           xml:space="preserve"
           style="font-style:normal;font-variant:normal;font-weight:normal;font-stretch:normal;font-size:4.23333px;line-height:1.25;font-family:sans-serif;-inkscape-font-specification:'sans-serif, Normal';font-variant-ligatures:normal;font-variant-caps:normal;font-variant-numeric:normal;font-variant-east-asian:normal;fill:#000000;fill-opacity:1;stroke:none;stroke-width:0.264583"
           x="16.470314"
           y="33.293056"
           id="text2703"><tspan
             sodipodi:role="line"
             id="tspan2701"
             x="16.470314"
             y="33.293056"
             style="font-style:normal;font-variant:normal;font-weight:normal;font-stretch:normal;font-size:4.23333px;font-family:sans-serif;-inkscape-font-specification:'sans-serif, Normal';font-variant-ligatures:normal;font-variant-caps:normal;font-variant-numeric:normal;font-variant-east-asian:normal;stroke-width:0.264583">.1</tspan></text>
      </g>
      <g
         id="g2713"
         transform="translate(179.91666)">
        <rect
           style="fill:#dfdfdf;fill-opacity:1;stroke:#4e4e4e;stroke-width:0.7;stroke-opacity:1"
           id="rect2707"
           width="5.2916665"
           height="5.2916665"
           x="15.875"
           y="29.104166" />
        <text
           xml:space="preserve"
           style="font-style:normal;font-variant:normal;font-weight:normal;font-stretch:normal;font-size:4.23333px;line-height:1.25;font-family:sans-serif;-inkscape-font-specification:'sans-serif, Normal';font-variant-ligatures:normal;font-variant-caps:normal;font-variant-numeric:normal;font-variant-east-asian:normal;fill:#000000;fill-opacity:1;stroke:none;stroke-width:0.264583"
           x="16.393833"
           y="33.293056"
           id="text2711"><tspan
             sodipodi:role="line"
             id="tspan2709"
             x="16.393833"
             y="33.293056"
             style="font-style:normal;font-variant:normal;font-weight:normal;font-stretch:normal;font-size:4.23333px;font-family:sans-serif;-inkscape-font-specification:'sans-serif, Normal';font-variant-ligatures:normal;font-variant-caps:normal;font-variant-numeric:normal;font-variant-east-asian:normal;stroke-width:0.264583">.4</tspan></text>
      </g>
    </g>
  </g>
</svg>
