<?xml version="1.0" encoding="UTF-8" standalone="no"?>
<svg
   xmlns:dc="http://purl.org/dc/elements/1.1/"
   xmlns:cc="http://creativecommons.org/ns#"
   xmlns:rdf="http://www.w3.org/1999/02/22-rdf-syntax-ns#"
   xmlns:svg="http://www.w3.org/2000/svg"
   xmlns="http://www.w3.org/2000/svg"
   xmlns:xlink="http://www.w3.org/1999/xlink"
   xmlns:sodipodi="http://sodipodi.sourceforge.net/DTD/sodipodi-0.dtd"
   xmlns:inkscape="http://www.inkscape.org/namespaces/inkscape"
   height="345.6pt"
   version="1.1"
   viewBox="0 0 460.8 345.6"
   width="460.8pt"
   id="svg386"
   sodipodi:docname="stoppage.svg"
   inkscape:version="1.0.1 (3bc2e813f5, 2020-09-07)">
  <sodipodi:namedview
     pagecolor="#ffffff"
     bordercolor="#666666"
     borderopacity="1"
     objecttolerance="10"
     gridtolerance="10"
     guidetolerance="10"
     inkscape:pageopacity="0"
     inkscape:pageshadow="2"
     inkscape:window-width="918"
     inkscape:window-height="1041"
     id="namedview388"
     showgrid="false"
     inkscape:zoom="0.9581163"
     inkscape:cx="259.48749"
     inkscape:cy="345.20786"
     inkscape:window-x="998"
     inkscape:window-y="35"
     inkscape:window-maximized="0"
     inkscape:current-layer="axes_1"
     inkscape:document-rotation="0">
    <inkscape:grid
       type="xygrid"
       id="grid1221" />
  </sodipodi:namedview>
  <metadata
     id="metadata2">
    <rdf:RDF>
      <cc:Work>
        <dc:type
           rdf:resource="http://purl.org/dc/dcmitype/StillImage" />
        <dc:date>2020-12-19T19:21:12.977021</dc:date>
        <dc:format>image/svg+xml</dc:format>
        <dc:creator>
          <cc:Agent>
            <dc:title>Matplotlib v3.3.3, https://matplotlib.org/</dc:title>
          </cc:Agent>
        </dc:creator>
      </cc:Work>
    </rdf:RDF>
  </metadata>
  <defs
     id="defs6">
    <style
       type="text/css"
       id="style4">*{stroke-linecap:butt;stroke-linejoin:round;}</style>
  </defs>
  <g
     id="figure_1">
    <g
       id="patch_1">
      <path
         d="M 0 345.6  L 460.8 345.6  L 460.8 0  L 0 0  z "
         style="fill:#ffffff;"
         id="path8" />
    </g>
    <g
       id="axes_1">
      <g
         id="patch_2">
        <path
           d="M 57.6 307.584  L 414.72 307.584  L 414.72 41.472  L 57.6 41.472  z "
           style="fill:#ffffff;"
           id="path11" />
      </g>
      <g
         id="matplotlib.axis_1">
        <g
           id="xtick_1">
          <g
             id="line2d_1">
            <defs
               id="defs15">
              <path
                 d="M 0 0  L 0 3.5  "
                 id="mf5c91b9089"
                 style="stroke:#000000;stroke-width:0.8;" />
            </defs>
            <g
               id="g19">
              <use
                 style="stroke:#000000;stroke-width:0.8;"
                 x="73.832727"
                 xlink:href="#mf5c91b9089"
                 y="307.584"
                 id="use17" />
            </g>
          </g>
          <g
             id="text_1">
            <!-- 0 -->
            <g
               transform="translate(70.651477 322.182437)scale(0.1 -0.1)"
               id="g27">
              <defs
                 id="defs23">
                <path
                   d="M 31.78125 66.40625  Q 24.171875 66.40625 20.328125 58.90625  Q 16.5 51.421875 16.5 36.375  Q 16.5 21.390625 20.328125 13.890625  Q 24.171875 6.390625 31.78125 6.390625  Q 39.453125 6.390625 43.28125 13.890625  Q 47.125 21.390625 47.125 36.375  Q 47.125 51.421875 43.28125 58.90625  Q 39.453125 66.40625 31.78125 66.40625  z M 31.78125 74.21875  Q 44.046875 74.21875 50.515625 64.515625  Q 56.984375 54.828125 56.984375 36.375  Q 56.984375 17.96875 50.515625 8.265625  Q 44.046875 -1.421875 31.78125 -1.421875  Q 19.53125 -1.421875 13.0625 8.265625  Q 6.59375 17.96875 6.59375 36.375  Q 6.59375 54.828125 13.0625 64.515625  Q 19.53125 74.21875 31.78125 74.21875  z "
                   id="DejaVuSans-48" />
              </defs>
              <use
                 xlink:href="#DejaVuSans-48"
                 id="use25" />
            </g>
          </g>
        </g>
        <g
           id="xtick_2">
          <g
             id="line2d_2">
            <g
               id="g33">
              <use
                 style="stroke:#000000;stroke-width:0.8;"
                 x="138.828632"
                 xlink:href="#mf5c91b9089"
                 y="307.584"
                 id="use31" />
            </g>
          </g>
          <g
             id="text_2">
            <!-- 20 -->
            <g
               transform="translate(132.466132 322.182437)scale(0.1 -0.1)"
               id="g43">
              <defs
                 id="defs37">
                <path
                   d="M 19.1875 8.296875  L 53.609375 8.296875  L 53.609375 0  L 7.328125 0  L 7.328125 8.296875  Q 12.9375 14.109375 22.625 23.890625  Q 32.328125 33.6875 34.8125 36.53125  Q 39.546875 41.84375 41.421875 45.53125  Q 43.3125 49.21875 43.3125 52.78125  Q 43.3125 58.59375 39.234375 62.25  Q 35.15625 65.921875 28.609375 65.921875  Q 23.96875 65.921875 18.8125 64.3125  Q 13.671875 62.703125 7.8125 59.421875  L 7.8125 69.390625  Q 13.765625 71.78125 18.9375 73  Q 24.125 74.21875 28.421875 74.21875  Q 39.75 74.21875 46.484375 68.546875  Q 53.21875 62.890625 53.21875 53.421875  Q 53.21875 48.921875 51.53125 44.890625  Q 49.859375 40.875 45.40625 35.40625  Q 44.1875 33.984375 37.640625 27.21875  Q 31.109375 20.453125 19.1875 8.296875  z "
                   id="DejaVuSans-50" />
              </defs>
              <use
                 xlink:href="#DejaVuSans-50"
                 id="use39" />
              <use
                 x="63.623047"
                 xlink:href="#DejaVuSans-48"
                 id="use41" />
            </g>
          </g>
        </g>
        <g
           id="xtick_3">
          <g
             id="line2d_3">
            <g
               id="g49">
              <use
                 style="stroke:#000000;stroke-width:0.8;"
                 x="203.824537"
                 xlink:href="#mf5c91b9089"
                 y="307.584"
                 id="use47" />
            </g>
          </g>
          <g
             id="text_3">
            <!-- 40 -->
            <g
               transform="translate(197.462037 322.182437)scale(0.1 -0.1)"
               id="g59">
              <defs
                 id="defs53">
                <path
                   d="M 37.796875 64.3125  L 12.890625 25.390625  L 37.796875 25.390625  z M 35.203125 72.90625  L 47.609375 72.90625  L 47.609375 25.390625  L 58.015625 25.390625  L 58.015625 17.1875  L 47.609375 17.1875  L 47.609375 0  L 37.796875 0  L 37.796875 17.1875  L 4.890625 17.1875  L 4.890625 26.703125  z "
                   id="DejaVuSans-52" />
              </defs>
              <use
                 xlink:href="#DejaVuSans-52"
                 id="use55" />
              <use
                 x="63.623047"
                 xlink:href="#DejaVuSans-48"
                 id="use57" />
            </g>
          </g>
        </g>
        <g
           id="xtick_4">
          <g
             id="line2d_4">
            <g
               id="g65">
              <use
                 style="stroke:#000000;stroke-width:0.8;"
                 x="268.820442"
                 xlink:href="#mf5c91b9089"
                 y="307.584"
                 id="use63" />
            </g>
          </g>
          <g
             id="text_4">
            <!-- 60 -->
            <g
               transform="translate(262.457942 322.182437)scale(0.1 -0.1)"
               id="g75">
              <defs
                 id="defs69">
                <path
                   d="M 33.015625 40.375  Q 26.375 40.375 22.484375 35.828125  Q 18.609375 31.296875 18.609375 23.390625  Q 18.609375 15.53125 22.484375 10.953125  Q 26.375 6.390625 33.015625 6.390625  Q 39.65625 6.390625 43.53125 10.953125  Q 47.40625 15.53125 47.40625 23.390625  Q 47.40625 31.296875 43.53125 35.828125  Q 39.65625 40.375 33.015625 40.375  z M 52.59375 71.296875  L 52.59375 62.3125  Q 48.875 64.0625 45.09375 64.984375  Q 41.3125 65.921875 37.59375 65.921875  Q 27.828125 65.921875 22.671875 59.328125  Q 17.53125 52.734375 16.796875 39.40625  Q 19.671875 43.65625 24.015625 45.921875  Q 28.375 48.1875 33.59375 48.1875  Q 44.578125 48.1875 50.953125 41.515625  Q 57.328125 34.859375 57.328125 23.390625  Q 57.328125 12.15625 50.6875 5.359375  Q 44.046875 -1.421875 33.015625 -1.421875  Q 20.359375 -1.421875 13.671875 8.265625  Q 6.984375 17.96875 6.984375 36.375  Q 6.984375 53.65625 15.1875 63.9375  Q 23.390625 74.21875 37.203125 74.21875  Q 40.921875 74.21875 44.703125 73.484375  Q 48.484375 72.75 52.59375 71.296875  z "
                   id="DejaVuSans-54" />
              </defs>
              <use
                 xlink:href="#DejaVuSans-54"
                 id="use71" />
              <use
                 x="63.623047"
                 xlink:href="#DejaVuSans-48"
                 id="use73" />
            </g>
          </g>
        </g>
        <g
           id="xtick_5">
          <g
             id="line2d_5">
            <g
               id="g81">
              <use
                 style="stroke:#000000;stroke-width:0.8;"
                 x="333.816347"
                 xlink:href="#mf5c91b9089"
                 y="307.584"
                 id="use79" />
            </g>
          </g>
          <g
             id="text_5">
            <!-- 80 -->
            <g
               transform="translate(327.453847 322.182437)scale(0.1 -0.1)"
               id="g91">
              <defs
                 id="defs85">
                <path
                   d="M 31.78125 34.625  Q 24.75 34.625 20.71875 30.859375  Q 16.703125 27.09375 16.703125 20.515625  Q 16.703125 13.921875 20.71875 10.15625  Q 24.75 6.390625 31.78125 6.390625  Q 38.8125 6.390625 42.859375 10.171875  Q 46.921875 13.96875 46.921875 20.515625  Q 46.921875 27.09375 42.890625 30.859375  Q 38.875 34.625 31.78125 34.625  z M 21.921875 38.8125  Q 15.578125 40.375 12.03125 44.71875  Q 8.5 49.078125 8.5 55.328125  Q 8.5 64.0625 14.71875 69.140625  Q 20.953125 74.21875 31.78125 74.21875  Q 42.671875 74.21875 48.875 69.140625  Q 55.078125 64.0625 55.078125 55.328125  Q 55.078125 49.078125 51.53125 44.71875  Q 48 40.375 41.703125 38.8125  Q 48.828125 37.15625 52.796875 32.3125  Q 56.78125 27.484375 56.78125 20.515625  Q 56.78125 9.90625 50.3125 4.234375  Q 43.84375 -1.421875 31.78125 -1.421875  Q 19.734375 -1.421875 13.25 4.234375  Q 6.78125 9.90625 6.78125 20.515625  Q 6.78125 27.484375 10.78125 32.3125  Q 14.796875 37.15625 21.921875 38.8125  z M 18.3125 54.390625  Q 18.3125 48.734375 21.84375 45.5625  Q 25.390625 42.390625 31.78125 42.390625  Q 38.140625 42.390625 41.71875 45.5625  Q 45.3125 48.734375 45.3125 54.390625  Q 45.3125 60.0625 41.71875 63.234375  Q 38.140625 66.40625 31.78125 66.40625  Q 25.390625 66.40625 21.84375 63.234375  Q 18.3125 60.0625 18.3125 54.390625  z "
                   id="DejaVuSans-56" />
              </defs>
              <use
                 xlink:href="#DejaVuSans-56"
                 id="use87" />
              <use
                 x="63.623047"
                 xlink:href="#DejaVuSans-48"
                 id="use89" />
            </g>
          </g>
        </g>
        <g
           id="xtick_6">
          <g
             id="line2d_6">
            <g
               id="g97">
              <use
                 style="stroke:#000000;stroke-width:0.8;"
                 x="398.812252"
                 xlink:href="#mf5c91b9089"
                 y="307.584"
                 id="use95" />
            </g>
          </g>
          <g
             id="text_6">
            <!-- 100 -->
            <g
               transform="translate(389.268502 322.182437)scale(0.1 -0.1)"
               id="g109">
              <defs
                 id="defs101">
                <path
                   d="M 12.40625 8.296875  L 28.515625 8.296875  L 28.515625 63.921875  L 10.984375 60.40625  L 10.984375 69.390625  L 28.421875 72.90625  L 38.28125 72.90625  L 38.28125 8.296875  L 54.390625 8.296875  L 54.390625 0  L 12.40625 0  z "
                   id="DejaVuSans-49" />
              </defs>
              <use
                 xlink:href="#DejaVuSans-49"
                 id="use103" />
              <use
                 x="63.623047"
                 xlink:href="#DejaVuSans-48"
                 id="use105" />
              <use
                 x="127.246094"
                 xlink:href="#DejaVuSans-48"
                 id="use107" />
            </g>
          </g>
        </g>
        <g
           id="text_7">
          <!-- Number of episodes -->
          <g
             transform="translate(185.917031 335.860562)scale(0.1 -0.1)"
             id="g164">
            <defs
               id="defs126">
              <path
                 d="M 9.8125 72.90625  L 23.09375 72.90625  L 55.421875 11.921875  L 55.421875 72.90625  L 64.984375 72.90625  L 64.984375 0  L 51.703125 0  L 19.390625 60.984375  L 19.390625 0  L 9.8125 0  z "
                 id="DejaVuSans-78" />
              <path
                 d="M 8.5 21.578125  L 8.5 54.6875  L 17.484375 54.6875  L 17.484375 21.921875  Q 17.484375 14.15625 20.5 10.265625  Q 23.53125 6.390625 29.59375 6.390625  Q 36.859375 6.390625 41.078125 11.03125  Q 45.3125 15.671875 45.3125 23.6875  L 45.3125 54.6875  L 54.296875 54.6875  L 54.296875 0  L 45.3125 0  L 45.3125 8.40625  Q 42.046875 3.421875 37.71875 1  Q 33.40625 -1.421875 27.6875 -1.421875  Q 18.265625 -1.421875 13.375 4.4375  Q 8.5 10.296875 8.5 21.578125  z M 31.109375 56  z "
                 id="DejaVuSans-117" />
              <path
                 d="M 52 44.1875  Q 55.375 50.25 60.0625 53.125  Q 64.75 56 71.09375 56  Q 79.640625 56 84.28125 50.015625  Q 88.921875 44.046875 88.921875 33.015625  L 88.921875 0  L 79.890625 0  L 79.890625 32.71875  Q 79.890625 40.578125 77.09375 44.375  Q 74.3125 48.1875 68.609375 48.1875  Q 61.625 48.1875 57.5625 43.546875  Q 53.515625 38.921875 53.515625 30.90625  L 53.515625 0  L 44.484375 0  L 44.484375 32.71875  Q 44.484375 40.625 41.703125 44.40625  Q 38.921875 48.1875 33.109375 48.1875  Q 26.21875 48.1875 22.15625 43.53125  Q 18.109375 38.875 18.109375 30.90625  L 18.109375 0  L 9.078125 0  L 9.078125 54.6875  L 18.109375 54.6875  L 18.109375 46.1875  Q 21.1875 51.21875 25.484375 53.609375  Q 29.78125 56 35.6875 56  Q 41.65625 56 45.828125 52.96875  Q 50 49.953125 52 44.1875  z "
                 id="DejaVuSans-109" />
              <path
                 d="M 48.6875 27.296875  Q 48.6875 37.203125 44.609375 42.84375  Q 40.53125 48.484375 33.40625 48.484375  Q 26.265625 48.484375 22.1875 42.84375  Q 18.109375 37.203125 18.109375 27.296875  Q 18.109375 17.390625 22.1875 11.75  Q 26.265625 6.109375 33.40625 6.109375  Q 40.53125 6.109375 44.609375 11.75  Q 48.6875 17.390625 48.6875 27.296875  z M 18.109375 46.390625  Q 20.953125 51.265625 25.265625 53.625  Q 29.59375 56 35.59375 56  Q 45.5625 56 51.78125 48.09375  Q 58.015625 40.1875 58.015625 27.296875  Q 58.015625 14.40625 51.78125 6.484375  Q 45.5625 -1.421875 35.59375 -1.421875  Q 29.59375 -1.421875 25.265625 0.953125  Q 20.953125 3.328125 18.109375 8.203125  L 18.109375 0  L 9.078125 0  L 9.078125 75.984375  L 18.109375 75.984375  z "
                 id="DejaVuSans-98" />
              <path
                 d="M 56.203125 29.59375  L 56.203125 25.203125  L 14.890625 25.203125  Q 15.484375 15.921875 20.484375 11.0625  Q 25.484375 6.203125 34.421875 6.203125  Q 39.59375 6.203125 44.453125 7.46875  Q 49.3125 8.734375 54.109375 11.28125  L 54.109375 2.78125  Q 49.265625 0.734375 44.1875 -0.34375  Q 39.109375 -1.421875 33.890625 -1.421875  Q 20.796875 -1.421875 13.15625 6.1875  Q 5.515625 13.8125 5.515625 26.8125  Q 5.515625 40.234375 12.765625 48.109375  Q 20.015625 56 32.328125 56  Q 43.359375 56 49.78125 48.890625  Q 56.203125 41.796875 56.203125 29.59375  z M 47.21875 32.234375  Q 47.125 39.59375 43.09375 43.984375  Q 39.0625 48.390625 32.421875 48.390625  Q 24.90625 48.390625 20.390625 44.140625  Q 15.875 39.890625 15.1875 32.171875  z "
                 id="DejaVuSans-101" />
              <path
                 d="M 41.109375 46.296875  Q 39.59375 47.171875 37.8125 47.578125  Q 36.03125 48 33.890625 48  Q 26.265625 48 22.1875 43.046875  Q 18.109375 38.09375 18.109375 28.8125  L 18.109375 0  L 9.078125 0  L 9.078125 54.6875  L 18.109375 54.6875  L 18.109375 46.1875  Q 20.953125 51.171875 25.484375 53.578125  Q 30.03125 56 36.53125 56  Q 37.453125 56 38.578125 55.875  Q 39.703125 55.765625 41.0625 55.515625  z "
                 id="DejaVuSans-114" />
              <path
                 id="DejaVuSans-32" />
              <path
                 d="M 30.609375 48.390625  Q 23.390625 48.390625 19.1875 42.75  Q 14.984375 37.109375 14.984375 27.296875  Q 14.984375 17.484375 19.15625 11.84375  Q 23.34375 6.203125 30.609375 6.203125  Q 37.796875 6.203125 41.984375 11.859375  Q 46.1875 17.53125 46.1875 27.296875  Q 46.1875 37.015625 41.984375 42.703125  Q 37.796875 48.390625 30.609375 48.390625  z M 30.609375 56  Q 42.328125 56 49.015625 48.375  Q 55.71875 40.765625 55.71875 27.296875  Q 55.71875 13.875 49.015625 6.21875  Q 42.328125 -1.421875 30.609375 -1.421875  Q 18.84375 -1.421875 12.171875 6.21875  Q 5.515625 13.875 5.515625 27.296875  Q 5.515625 40.765625 12.171875 48.375  Q 18.84375 56 30.609375 56  z "
                 id="DejaVuSans-111" />
              <path
                 d="M 37.109375 75.984375  L 37.109375 68.5  L 28.515625 68.5  Q 23.6875 68.5 21.796875 66.546875  Q 19.921875 64.59375 19.921875 59.515625  L 19.921875 54.6875  L 34.71875 54.6875  L 34.71875 47.703125  L 19.921875 47.703125  L 19.921875 0  L 10.890625 0  L 10.890625 47.703125  L 2.296875 47.703125  L 2.296875 54.6875  L 10.890625 54.6875  L 10.890625 58.5  Q 10.890625 67.625 15.140625 71.796875  Q 19.390625 75.984375 28.609375 75.984375  z "
                 id="DejaVuSans-102" />
              <path
                 d="M 18.109375 8.203125  L 18.109375 -20.796875  L 9.078125 -20.796875  L 9.078125 54.6875  L 18.109375 54.6875  L 18.109375 46.390625  Q 20.953125 51.265625 25.265625 53.625  Q 29.59375 56 35.59375 56  Q 45.5625 56 51.78125 48.09375  Q 58.015625 40.1875 58.015625 27.296875  Q 58.015625 14.40625 51.78125 6.484375  Q 45.5625 -1.421875 35.59375 -1.421875  Q 29.59375 -1.421875 25.265625 0.953125  Q 20.953125 3.328125 18.109375 8.203125  z M 48.6875 27.296875  Q 48.6875 37.203125 44.609375 42.84375  Q 40.53125 48.484375 33.40625 48.484375  Q 26.265625 48.484375 22.1875 42.84375  Q 18.109375 37.203125 18.109375 27.296875  Q 18.109375 17.390625 22.1875 11.75  Q 26.265625 6.109375 33.40625 6.109375  Q 40.53125 6.109375 44.609375 11.75  Q 48.6875 17.390625 48.6875 27.296875  z "
                 id="DejaVuSans-112" />
              <path
                 d="M 9.421875 54.6875  L 18.40625 54.6875  L 18.40625 0  L 9.421875 0  z M 9.421875 75.984375  L 18.40625 75.984375  L 18.40625 64.59375  L 9.421875 64.59375  z "
                 id="DejaVuSans-105" />
              <path
                 d="M 44.28125 53.078125  L 44.28125 44.578125  Q 40.484375 46.53125 36.375 47.5  Q 32.28125 48.484375 27.875 48.484375  Q 21.1875 48.484375 17.84375 46.4375  Q 14.5 44.390625 14.5 40.28125  Q 14.5 37.15625 16.890625 35.375  Q 19.28125 33.59375 26.515625 31.984375  L 29.59375 31.296875  Q 39.15625 29.25 43.1875 25.515625  Q 47.21875 21.78125 47.21875 15.09375  Q 47.21875 7.46875 41.1875 3.015625  Q 35.15625 -1.421875 24.609375 -1.421875  Q 20.21875 -1.421875 15.453125 -0.5625  Q 10.6875 0.296875 5.421875 2  L 5.421875 11.28125  Q 10.40625 8.6875 15.234375 7.390625  Q 20.0625 6.109375 24.8125 6.109375  Q 31.15625 6.109375 34.5625 8.28125  Q 37.984375 10.453125 37.984375 14.40625  Q 37.984375 18.0625 35.515625 20.015625  Q 33.0625 21.96875 24.703125 23.78125  L 21.578125 24.515625  Q 13.234375 26.265625 9.515625 29.90625  Q 5.8125 33.546875 5.8125 39.890625  Q 5.8125 47.609375 11.28125 51.796875  Q 16.75 56 26.8125 56  Q 31.78125 56 36.171875 55.265625  Q 40.578125 54.546875 44.28125 53.078125  z "
                 id="DejaVuSans-115" />
              <path
                 d="M 45.40625 46.390625  L 45.40625 75.984375  L 54.390625 75.984375  L 54.390625 0  L 45.40625 0  L 45.40625 8.203125  Q 42.578125 3.328125 38.25 0.953125  Q 33.9375 -1.421875 27.875 -1.421875  Q 17.96875 -1.421875 11.734375 6.484375  Q 5.515625 14.40625 5.515625 27.296875  Q 5.515625 40.1875 11.734375 48.09375  Q 17.96875 56 27.875 56  Q 33.9375 56 38.25 53.625  Q 42.578125 51.265625 45.40625 46.390625  z M 14.796875 27.296875  Q 14.796875 17.390625 18.875 11.75  Q 22.953125 6.109375 30.078125 6.109375  Q 37.203125 6.109375 41.296875 11.75  Q 45.40625 17.390625 45.40625 27.296875  Q 45.40625 37.203125 41.296875 42.84375  Q 37.203125 48.484375 30.078125 48.484375  Q 22.953125 48.484375 18.875 42.84375  Q 14.796875 37.203125 14.796875 27.296875  z "
                 id="DejaVuSans-100" />
            </defs>
            <use
               xlink:href="#DejaVuSans-78"
               id="use128" />
            <use
               x="74.804688"
               xlink:href="#DejaVuSans-117"
               id="use130" />
            <use
               x="138.183594"
               xlink:href="#DejaVuSans-109"
               id="use132" />
            <use
               x="235.595703"
               xlink:href="#DejaVuSans-98"
               id="use134" />
            <use
               x="299.072266"
               xlink:href="#DejaVuSans-101"
               id="use136" />
            <use
               x="360.595703"
               xlink:href="#DejaVuSans-114"
               id="use138" />
            <use
               x="401.708984"
               xlink:href="#DejaVuSans-32"
               id="use140" />
            <use
               x="433.496094"
               xlink:href="#DejaVuSans-111"
               id="use142" />
            <use
               x="494.677734"
               xlink:href="#DejaVuSans-102"
               id="use144" />
            <use
               x="529.882812"
               xlink:href="#DejaVuSans-32"
               id="use146" />
            <use
               x="561.669922"
               xlink:href="#DejaVuSans-101"
               id="use148" />
            <use
               x="623.193359"
               xlink:href="#DejaVuSans-112"
               id="use150" />
            <use
               x="686.669922"
               xlink:href="#DejaVuSans-105"
               id="use152" />
            <use
               x="714.453125"
               xlink:href="#DejaVuSans-115"
               id="use154" />
            <use
               x="766.552734"
               xlink:href="#DejaVuSans-111"
               id="use156" />
            <use
               x="827.734375"
               xlink:href="#DejaVuSans-100"
               id="use158" />
            <use
               x="891.210938"
               xlink:href="#DejaVuSans-101"
               id="use160" />
            <use
               x="952.734375"
               xlink:href="#DejaVuSans-115"
               id="use162" />
          </g>
        </g>
      </g>
      <g
         id="matplotlib.axis_2">
        <g
           id="ytick_1">
          <g
             id="line2d_7">
            <defs
               id="defs169">
              <path
                 d="M 0 0  L -3.5 0  "
                 id="m2287cffe79"
                 style="stroke:#000000;stroke-width:0.8;" />
            </defs>
            <g
               id="g173">
              <use
                 style="stroke:#000000;stroke-width:0.8;"
                 x="57.6"
                 xlink:href="#m2287cffe79"
                 y="296.936279"
                 id="use171" />
            </g>
          </g>
          <g
             id="text_8">
            <!-- 0.0 -->
            <g
               transform="translate(34.696875 300.735497)scale(0.1 -0.1)"
               id="g185">
              <defs
                 id="defs177">
                <path
                   d="M 10.6875 12.40625  L 21 12.40625  L 21 0  L 10.6875 0  z "
                   id="DejaVuSans-46" />
              </defs>
              <use
                 xlink:href="#DejaVuSans-48"
                 id="use179" />
              <use
                 x="63.623047"
                 xlink:href="#DejaVuSans-46"
                 id="use181" />
              <use
                 x="95.410156"
                 xlink:href="#DejaVuSans-48"
                 id="use183" />
            </g>
          </g>
        </g>
        <g
           id="ytick_2">
          <g
             id="line2d_8">
            <g
               id="g191">
              <use
                 style="stroke:#000000;stroke-width:0.8;"
                 x="57.6"
                 xlink:href="#m2287cffe79"
                 y="248.262623"
                 id="use189" />
            </g>
          </g>
          <g
             id="text_9">
            <!-- 0.2 -->
            <g
               transform="translate(34.696875 252.061842)scale(0.1 -0.1)"
               id="g200">
              <use
                 xlink:href="#DejaVuSans-48"
                 id="use194" />
              <use
                 x="63.623047"
                 xlink:href="#DejaVuSans-46"
                 id="use196" />
              <use
                 x="95.410156"
                 xlink:href="#DejaVuSans-50"
                 id="use198" />
            </g>
          </g>
        </g>
        <g
           id="ytick_3">
          <g
             id="line2d_9">
            <g
               id="g206">
              <use
                 style="stroke:#000000;stroke-width:0.8;"
                 x="57.6"
                 xlink:href="#m2287cffe79"
                 y="199.588967"
                 id="use204" />
            </g>
          </g>
          <g
             id="text_10">
            <!-- 0.4 -->
            <g
               transform="translate(34.696875 203.388186)scale(0.1 -0.1)"
               id="g215">
              <use
                 xlink:href="#DejaVuSans-48"
                 id="use209" />
              <use
                 x="63.623047"
                 xlink:href="#DejaVuSans-46"
                 id="use211" />
              <use
                 x="95.410156"
                 xlink:href="#DejaVuSans-52"
                 id="use213" />
            </g>
          </g>
        </g>
        <g
           id="ytick_4">
          <g
             id="line2d_10">
            <g
               id="g221">
              <use
                 style="stroke:#000000;stroke-width:0.8;"
                 x="57.6"
                 xlink:href="#m2287cffe79"
                 y="150.915311"
                 id="use219" />
            </g>
          </g>
          <g
             id="text_11">
            <!-- 0.6 -->
            <g
               transform="translate(34.696875 154.71453)scale(0.1 -0.1)"
               id="g230">
              <use
                 xlink:href="#DejaVuSans-48"
                 id="use224" />
              <use
                 x="63.623047"
                 xlink:href="#DejaVuSans-46"
                 id="use226" />
              <use
                 x="95.410156"
                 xlink:href="#DejaVuSans-54"
                 id="use228" />
            </g>
          </g>
        </g>
        <g
           id="ytick_5">
          <g
             id="line2d_11">
            <g
               id="g236">
              <use
                 style="stroke:#000000;stroke-width:0.8;"
                 x="57.6"
                 xlink:href="#m2287cffe79"
                 y="102.241656"
                 id="use234" />
            </g>
          </g>
          <g
             id="text_12">
            <!-- 0.8 -->
            <g
               transform="translate(34.696875 106.040874)scale(0.1 -0.1)"
               id="g245">
              <use
                 xlink:href="#DejaVuSans-48"
                 id="use239" />
              <use
                 x="63.623047"
                 xlink:href="#DejaVuSans-46"
                 id="use241" />
              <use
                 x="95.410156"
                 xlink:href="#DejaVuSans-56"
                 id="use243" />
            </g>
          </g>
        </g>
        <g
           id="ytick_6">
          <g
             id="line2d_12">
            <g
               id="g251">
              <use
                 style="stroke:#000000;stroke-width:0.8;"
                 x="57.6"
                 xlink:href="#m2287cffe79"
                 y="53.568"
                 id="use249" />
            </g>
          </g>
          <g
             id="text_13">
            <!-- 1.0 -->
            <g
               transform="translate(34.696875 57.367219)scale(0.1 -0.1)"
               id="g260">
              <use
                 xlink:href="#DejaVuSans-49"
                 id="use254" />
              <use
                 x="63.623047"
                 xlink:href="#DejaVuSans-46"
                 id="use256" />
              <use
                 x="95.410156"
                 xlink:href="#DejaVuSans-48"
                 id="use258" />
            </g>
          </g>
        </g>
        <g
           id="text_14">
          <!-- Error -->
          <g
             transform="translate(28.617188 186.713156)rotate(-90)scale(0.1 -0.1)"
             id="g277">
            <defs
               id="defs265">
              <path
                 d="M 9.8125 72.90625  L 55.90625 72.90625  L 55.90625 64.59375  L 19.671875 64.59375  L 19.671875 43.015625  L 54.390625 43.015625  L 54.390625 34.71875  L 19.671875 34.71875  L 19.671875 8.296875  L 56.78125 8.296875  L 56.78125 0  L 9.8125 0  z "
                 id="DejaVuSans-69" />
            </defs>
            <use
               xlink:href="#DejaVuSans-69"
               id="use267" />
            <use
               x="63.183594"
               xlink:href="#DejaVuSans-114"
               id="use269" />
            <use
               x="102.546875"
               xlink:href="#DejaVuSans-114"
               id="use271" />
            <use
               x="141.410156"
               xlink:href="#DejaVuSans-111"
               id="use273" />
            <use
               x="202.591797"
               xlink:href="#DejaVuSans-114"
               id="use275" />
          </g>
        </g>
      </g>
      <g
         id="line2d_13">
        <path
           clip-path="url(#pb2304ca1b4)"
           d="M 73.832727 53.568  L 77.732482 68.09609  L 81.632236 81.756913  L 85.53199 94.60224  L 89.431744 106.680754  L 93.331499 118.038231  L 97.231253 128.717712  L 101.131007 138.759672  L 105.030762 148.202168  L 108.930516 157.080986  L 112.83027 165.429774  L 116.730025 173.280174  L 120.629779 180.661938  L 124.529533 187.60304  L 128.754267 194.655765  L 132.979001 201.253542  L 137.203735 207.425719  L 141.428468 213.199749  L 145.653202 218.601315  L 149.877936 223.654444  L 154.10267 228.381612  L 158.652383 233.131961  L 163.202097 237.553144  L 167.75181 241.667971  L 172.301523 245.49767  L 177.176216 249.306933  L 182.050909 252.834102  L 186.925602 256.100068  L 192.125274 259.317629  L 197.324947 262.281672  L 202.849599 265.175503  L 208.69923 267.97661  L 214.548862 270.530676  L 220.723473 272.982671  L 227.223063 275.318148  L 234.047633 277.525735  L 241.197183 279.597055  L 248.671712 281.526588  L 256.47122 283.311465  L 264.920688 285.012553  L 274.020115 286.60776  L 283.7695 288.080865  L 294.168845 289.421358  L 305.543129 290.656317  L 317.892351 291.768466  L 331.541491 292.770023  L 346.815528 293.662519  L 364.039443 294.441788  L 383.863194 295.11198  L 398.487273 295.488  L 398.487273 295.488  "
           style="fill:none;stroke:#1f77b4;stroke-linecap:square;stroke-width:1.5;"
           id="path281" />
      </g>
      <g
         id="line2d_14">
        <path
           clip-path="url(#pb2304ca1b4)"
           d="M 73.832727 53.568  L 77.407502 65.580752  L 80.982277 76.861049  L 84.557052 87.449071  L 88.131826 97.382799  L 91.706601 106.698126  L 95.281376 115.428979  L 98.856151 123.607422  L 102.430925 131.263761  L 106.0057 138.426638  L 109.580475 145.123124  L 113.15525 151.378807  L 116.730025 157.217868  L 120.304799 162.663164  L 123.879574 167.736297  L 127.779328 172.870135  L 131.679083 177.610335  L 135.578837 181.980396  L 139.478591 186.002413  L 143.378346 189.697164  L 147.2781 193.084185  L 151.177854 196.181846  L 155.077609 199.007421  L 158.977363 201.577152  L 163.202097 204.090006  L 167.42683 206.338722  L 171.651564 208.340337  L 176.201278 210.237841  L 180.750991 211.885815  L 185.300704 213.301551  L 190.175397 214.578957  L 195.05009 215.626596  L 200.249762 216.509971  L 205.449435 217.17034  L 210.974087 217.647263  L 216.823718 217.920937  L 222.998329 217.974456  L 229.17294 217.808315  L 235.672531 217.418519  L 242.82208 216.760342  L 250.296609 215.842282  L 258.096118 214.661546  L 266.545586 213.155774  L 275.645012 211.303433  L 285.394398 209.088714  L 296.118722 206.417163  L 307.817985 203.26522  L 320.492187 199.617972  L 334.791286 195.265972  L 350.715283 190.183062  L 368.914136 184.137318  L 390.362785 176.769498  L 398.487273 173.925545  L 398.487273 173.925545  "
           style="fill:none;stroke:#ff7f0e;stroke-linecap:square;stroke-width:1.5;"
           id="path284" />
      </g>
      <g
         id="line2d_15" />
      <g
         id="line2d_16" />
      <g
         id="patch_3">
        <path
           d="M 57.6 307.584  L 57.6 41.472  "
           style="fill:none;stroke:#000000;stroke-linecap:square;stroke-linejoin:miter;stroke-width:0.8;"
           id="path289" />
      </g>
      <g
         id="patch_4">
        <path
           d="M 414.72 307.584  L 414.72 41.472  "
           style="fill:none;stroke:#000000;stroke-linecap:square;stroke-linejoin:miter;stroke-width:0.8;"
           id="path292" />
      </g>
      <g
         id="patch_5">
        <path
           d="M 57.6 307.584  L 414.72 307.584  "
           style="fill:none;stroke:#000000;stroke-linecap:square;stroke-linejoin:miter;stroke-width:0.8;"
           id="path295" />
      </g>
      <g
         id="patch_6">
        <path
           d="M 57.6 41.472  L 414.72 41.472  "
           style="fill:none;stroke:#000000;stroke-linecap:square;stroke-linejoin:miter;stroke-width:0.8;"
           id="path298" />
      </g>
      <g
         id="legend_1">
        <g
           id="patch_7">
          <path
             d="M 309.598125 78.82825  L 407.72 78.82825  Q 409.72 78.82825 409.72 76.82825  L 409.72 48.472  Q 409.72 46.472 407.72 46.472  L 309.598125 46.472  Q 307.598125 46.472 307.598125 48.472  L 307.598125 76.82825  Q 307.598125 78.82825 309.598125 78.82825  z "
             style="fill:#ffffff;opacity:0.8;stroke:#cccccc;stroke-linejoin:miter;"
             id="path301" />
        </g>
        <g
           id="line2d_17">
          <path
             d="M 311.598125 54.570437  L 331.598125 54.570437  "
             style="fill:none;stroke:#1f77b4;stroke-linecap:square;stroke-width:1.5;"
             id="path304" />
        </g>
        <g
           id="line2d_18" />
        <g
           id="text_15">
          <!-- training error -->
          <g
             transform="translate(339.598125 58.070437)scale(0.1 -0.1)"
             id="g342">
            <defs
               id="defs312">
              <path
                 d="M 18.3125 70.21875  L 18.3125 54.6875  L 36.8125 54.6875  L 36.8125 47.703125  L 18.3125 47.703125  L 18.3125 18.015625  Q 18.3125 11.328125 20.140625 9.421875  Q 21.96875 7.515625 27.59375 7.515625  L 36.8125 7.515625  L 36.8125 0  L 27.59375 0  Q 17.1875 0 13.234375 3.875  Q 9.28125 7.765625 9.28125 18.015625  L 9.28125 47.703125  L 2.6875 47.703125  L 2.6875 54.6875  L 9.28125 54.6875  L 9.28125 70.21875  z "
                 id="DejaVuSans-116" />
              <path
                 d="M 34.28125 27.484375  Q 23.390625 27.484375 19.1875 25  Q 14.984375 22.515625 14.984375 16.5  Q 14.984375 11.71875 18.140625 8.90625  Q 21.296875 6.109375 26.703125 6.109375  Q 34.1875 6.109375 38.703125 11.40625  Q 43.21875 16.703125 43.21875 25.484375  L 43.21875 27.484375  z M 52.203125 31.203125  L 52.203125 0  L 43.21875 0  L 43.21875 8.296875  Q 40.140625 3.328125 35.546875 0.953125  Q 30.953125 -1.421875 24.3125 -1.421875  Q 15.921875 -1.421875 10.953125 3.296875  Q 6 8.015625 6 15.921875  Q 6 25.140625 12.171875 29.828125  Q 18.359375 34.515625 30.609375 34.515625  L 43.21875 34.515625  L 43.21875 35.40625  Q 43.21875 41.609375 39.140625 45  Q 35.0625 48.390625 27.6875 48.390625  Q 23 48.390625 18.546875 47.265625  Q 14.109375 46.140625 10.015625 43.890625  L 10.015625 52.203125  Q 14.9375 54.109375 19.578125 55.046875  Q 24.21875 56 28.609375 56  Q 40.484375 56 46.34375 49.84375  Q 52.203125 43.703125 52.203125 31.203125  z "
                 id="DejaVuSans-97" />
              <path
                 d="M 54.890625 33.015625  L 54.890625 0  L 45.90625 0  L 45.90625 32.71875  Q 45.90625 40.484375 42.875 44.328125  Q 39.84375 48.1875 33.796875 48.1875  Q 26.515625 48.1875 22.3125 43.546875  Q 18.109375 38.921875 18.109375 30.90625  L 18.109375 0  L 9.078125 0  L 9.078125 54.6875  L 18.109375 54.6875  L 18.109375 46.1875  Q 21.34375 51.125 25.703125 53.5625  Q 30.078125 56 35.796875 56  Q 45.21875 56 50.046875 50.171875  Q 54.890625 44.34375 54.890625 33.015625  z "
                 id="DejaVuSans-110" />
              <path
                 d="M 45.40625 27.984375  Q 45.40625 37.75 41.375 43.109375  Q 37.359375 48.484375 30.078125 48.484375  Q 22.859375 48.484375 18.828125 43.109375  Q 14.796875 37.75 14.796875 27.984375  Q 14.796875 18.265625 18.828125 12.890625  Q 22.859375 7.515625 30.078125 7.515625  Q 37.359375 7.515625 41.375 12.890625  Q 45.40625 18.265625 45.40625 27.984375  z M 54.390625 6.78125  Q 54.390625 -7.171875 48.1875 -13.984375  Q 42 -20.796875 29.203125 -20.796875  Q 24.46875 -20.796875 20.265625 -20.09375  Q 16.0625 -19.390625 12.109375 -17.921875  L 12.109375 -9.1875  Q 16.0625 -11.328125 19.921875 -12.34375  Q 23.78125 -13.375 27.78125 -13.375  Q 36.625 -13.375 41.015625 -8.765625  Q 45.40625 -4.15625 45.40625 5.171875  L 45.40625 9.625  Q 42.625 4.78125 38.28125 2.390625  Q 33.9375 0 27.875 0  Q 17.828125 0 11.671875 7.65625  Q 5.515625 15.328125 5.515625 27.984375  Q 5.515625 40.671875 11.671875 48.328125  Q 17.828125 56 27.875 56  Q 33.9375 56 38.28125 53.609375  Q 42.625 51.21875 45.40625 46.390625  L 45.40625 54.6875  L 54.390625 54.6875  z "
                 id="DejaVuSans-103" />
            </defs>
            <use
               xlink:href="#DejaVuSans-116"
               id="use314" />
            <use
               x="39.208984"
               xlink:href="#DejaVuSans-114"
               id="use316" />
            <use
               x="80.322266"
               xlink:href="#DejaVuSans-97"
               id="use318" />
            <use
               x="141.601562"
               xlink:href="#DejaVuSans-105"
               id="use320" />
            <use
               x="169.384766"
               xlink:href="#DejaVuSans-110"
               id="use322" />
            <use
               x="232.763672"
               xlink:href="#DejaVuSans-105"
               id="use324" />
            <use
               x="260.546875"
               xlink:href="#DejaVuSans-110"
               id="use326" />
            <use
               x="323.925781"
               xlink:href="#DejaVuSans-103"
               id="use328" />
            <use
               x="387.402344"
               xlink:href="#DejaVuSans-32"
               id="use330" />
            <use
               x="419.189453"
               xlink:href="#DejaVuSans-101"
               id="use332" />
            <use
               x="480.712891"
               xlink:href="#DejaVuSans-114"
               id="use334" />
            <use
               x="520.076172"
               xlink:href="#DejaVuSans-114"
               id="use336" />
            <use
               x="558.939453"
               xlink:href="#DejaVuSans-111"
               id="use338" />
            <use
               x="620.121094"
               xlink:href="#DejaVuSans-114"
               id="use340" />
          </g>
        </g>
        <g
           id="line2d_19">
          <path
             d="M 311.598125 69.248562  L 331.598125 69.248562  "
             style="fill:none;stroke:#ff7f0e;stroke-linecap:square;stroke-width:1.5;"
             id="path345" />
        </g>
        <g
           id="line2d_20" />
        <g
           id="text_16">
          <!-- testing error -->
          <g
             transform="translate(339.598125 72.748562)scale(0.1 -0.1)"
             id="g375">
            <use
               xlink:href="#DejaVuSans-116"
               id="use349" />
            <use
               x="39.208984"
               xlink:href="#DejaVuSans-101"
               id="use351" />
            <use
               x="100.732422"
               xlink:href="#DejaVuSans-115"
               id="use353" />
            <use
               x="152.832031"
               xlink:href="#DejaVuSans-116"
               id="use355" />
            <use
               x="192.041016"
               xlink:href="#DejaVuSans-105"
               id="use357" />
            <use
               x="219.824219"
               xlink:href="#DejaVuSans-110"
               id="use359" />
            <use
               x="283.203125"
               xlink:href="#DejaVuSans-103"
               id="use361" />
            <use
               x="346.679688"
               xlink:href="#DejaVuSans-32"
               id="use363" />
            <use
               x="378.466797"
               xlink:href="#DejaVuSans-101"
               id="use365" />
            <use
               x="439.990234"
               xlink:href="#DejaVuSans-114"
               id="use367" />
            <use
               x="479.353516"
               xlink:href="#DejaVuSans-114"
               id="use369" />
            <use
               x="518.216797"
               xlink:href="#DejaVuSans-111"
               id="use371" />
            <use
               x="579.398438"
               xlink:href="#DejaVuSans-114"
               id="use373" />
          </g>
        </g>
      </g>
      <text
         xml:space="preserve"
         style="font-style:normal;font-variant:normal;font-weight:normal;font-stretch:normal;font-size:12px;line-height:1.25;font-family:sans-serif;-inkscape-font-specification:'sans-serif, Normal';font-variant-ligatures:normal;font-variant-caps:normal;font-variant-numeric:normal;font-variant-east-asian:normal;fill:#000000;fill-opacity:1;stroke:none;stroke-width:0.75;stroke-linecap:butt;stroke-linejoin:round"
         x="84.480438"
         y="62.624535"
         id="text1215"><tspan
           sodipodi:role="line"
           id="tspan1213"
           x="84.480438"
           y="62.624535"
           style="font-style:normal;font-variant:normal;font-weight:normal;font-stretch:normal;font-size:12px;font-family:sans-serif;-inkscape-font-specification:'sans-serif, Normal';font-variant-ligatures:normal;font-variant-caps:normal;font-variant-numeric:normal;font-variant-east-asian:normal;stroke-width:0.75">underfitting</tspan></text>
      <text
         xml:space="preserve"
         style="font-style:normal;font-variant:normal;font-weight:normal;font-stretch:normal;font-size:12px;line-height:1.25;font-family:sans-serif;-inkscape-font-specification:'sans-serif, Normal';font-variant-ligatures:normal;font-variant-caps:normal;font-variant-numeric:normal;font-variant-east-asian:normal;fill:#000000;fill-opacity:1;stroke:none;stroke-width:0.75;stroke-linecap:butt;stroke-linejoin:round"
         x="338.01083"
         y="164.53302"
         id="text1219"><tspan
           sodipodi:role="line"
           id="tspan1217"
           x="338.01083"
           y="164.53302"
           style="font-style:normal;font-variant:normal;font-weight:normal;font-stretch:normal;font-size:12px;font-family:sans-serif;-inkscape-font-specification:'sans-serif, Normal';font-variant-ligatures:normal;font-variant-caps:normal;font-variant-numeric:normal;font-variant-east-asian:normal;stroke-width:0.75">overfitting</tspan></text>
      <path
         style="fill:none;stroke:#00b829;stroke-width:4.5;stroke-linecap:butt;stroke-linejoin:miter;stroke-miterlimit:4;stroke-dasharray:none;stroke-opacity:1"
         d="M 219.075,52.500001 V 307.5"
         id="path1223" />
      <text
         xml:space="preserve"
         style="font-style:normal;font-variant:normal;font-weight:normal;font-stretch:normal;font-size:12px;line-height:1.25;font-family:sans-serif;-inkscape-font-specification:'sans-serif, Normal';font-variant-ligatures:normal;font-variant-caps:normal;font-variant-numeric:normal;font-variant-east-asian:normal;fill:#00b829;fill-opacity:1;stroke:none;stroke-width:0.75;stroke-linecap:butt;stroke-linejoin:round"
         x="223.77409"
         y="105.63219"
         id="text1227"><tspan
           sodipodi:role="line"
           x="223.77409"
           y="105.63219"
           style="font-style:normal;font-variant:normal;font-weight:normal;font-stretch:normal;font-size:12px;font-family:sans-serif;-inkscape-font-specification:'sans-serif, Normal';font-variant-ligatures:normal;font-variant-caps:normal;font-variant-numeric:normal;font-variant-east-asian:normal;fill:#00b829;fill-opacity:1;stroke-width:0.75"
           id="tspan1229">optimum</tspan><tspan
           sodipodi:role="line"
           x="223.77409"
           y="120.63219"
           style="font-style:normal;font-variant:normal;font-weight:normal;font-stretch:normal;font-size:12px;font-family:sans-serif;-inkscape-font-specification:'sans-serif, Normal';font-variant-ligatures:normal;font-variant-caps:normal;font-variant-numeric:normal;font-variant-east-asian:normal;fill:#00b829;fill-opacity:1;stroke-width:0.75"
           id="tspan1071">stoppage</tspan></text>
    </g>
  </g>
  <defs
     id="defs384">
    <clipPath
       id="pb2304ca1b4">
      <rect
         height="266.112"
         width="357.12"
         x="57.6"
         y="41.472"
         id="rect381" />
    </clipPath>
  </defs>
</svg>
